; generated by Slic3r Prusa Edition 1.41.0+linux64 on 2019-08-26 at 17:39:42

; 

; external perimeters extrusion width = 0.90mm
; perimeters extrusion width = 0.90mm
; infill extrusion width = 0.90mm
; solid infill extrusion width = 0.90mm
; top infill extrusion width = 0.80mm

M107
M104 S190 ; set temperature
; Begin of 'Start G-code'
; Filament-specific start gcode
M109 S190 ; set temperature and wait for it to be reached
G21 ; set units to millimeters
G90 ; use absolute coordinates
M83 ; use relative distances for extrusion
G10 ; retract
G1 Z0.250 F4800.000
; PURGING FINISHED
G1 X101.208 Y3.495
G11 ; unretract
G1 F1500
G1 X101.087 Y7.008 E0.30304
G1 X100.857 Y9.778 E0.23954
G1 X100.365 Y13.947 E0.36198
G1 X99.438 Y19.489 E0.48438
G1 X99.167 Y20.826 E0.11755
G1 X97.482 Y27.659 E0.60677
G1 X97.102 Y28.969 E0.11755
G1 X95.347 Y34.306 E0.48438
G1 X93.844 Y38.227 E0.36197
G1 X92.761 Y40.786 E0.23954
G1 X89.718 Y47.104 E0.60455
G1 X86.247 Y53.197 E0.60454
G1 X84.757 Y55.542 E0.23955
G1 X82.383 Y59.006 E0.36196
G1 X78.987 Y63.482 E0.48439
G1 X78.126 Y64.540 E0.11755
G1 X77.557 Y65.183 E0.07406
G1 X73.459 Y69.808 E0.53271
G1 X72.513 Y70.790 E0.11755
G1 X68.479 Y74.701 E0.48438
G1 X65.326 Y77.475 E0.36198
G1 X63.178 Y79.237 E0.23954
G1 X57.548 Y83.417 E0.60454
G1 X51.643 Y87.199 E0.60454
G1 X49.233 Y88.583 E0.23955
G1 X45.522 Y90.547 E0.36197
G1 X40.435 Y92.932 E0.48438
G1 X39.181 Y93.468 E0.11755
G1 X38.378 Y93.773 E0.07405
G1 X32.600 Y95.964 E0.53272
G1 X31.306 Y96.394 E0.11754
G1 X25.916 Y97.983 E0.48439
G1 X21.836 Y98.973 E0.36197
G1 X19.115 Y99.535 E0.23954
G1 X12.187 Y100.620 E0.60454
G1 X5.200 Y101.225 E0.60454
G1 X2.424 Y101.330 E0.23954
G1 X-1.775 Y101.345 E0.36198
G1 X-7.388 Y101.093 E0.48438
G1 X-8.748 Y100.985 E0.11755
G1 X-15.735 Y100.136 E0.60677
G1 X-17.080 Y99.916 E0.11755
G1 X-22.591 Y98.817 E0.48439
G1 X-26.664 Y97.799 E0.36197
G1 X-29.335 Y97.032 E0.23954
G1 X-35.973 Y94.773 E0.60455
G1 X-42.441 Y92.061 E0.60454
G1 X-44.948 Y90.864 E0.23954
G1 X-48.673 Y88.926 E0.36197
G1 X-53.526 Y86.094 E0.48439
G1 X-54.679 Y85.367 E0.11755
G1 X-60.472 Y81.368 E0.60677
G1 X-61.561 Y80.548 E0.11754
G1 X-65.929 Y77.014 E0.48439
G1 X-69.063 Y74.219 E0.36197
G1 X-71.071 Y72.299 E0.23954
G1 X-75.900 Y67.214 E0.60454
G1 X-80.366 Y61.807 E0.60454
G1 X-82.030 Y59.582 E0.23954
G1 X-84.427 Y56.135 E0.36197
G1 X-87.408 Y51.372 E0.48439
G1 X-88.091 Y50.192 E0.11754
G1 X-91.362 Y43.960 E0.60677
G1 X-91.945 Y42.727 E0.11755
G1 X-94.171 Y37.568 E0.48439
G1 X-95.647 Y33.637 E0.36197
G1 X-96.533 Y31.004 E0.23954
G1 X-98.445 Y24.257 E0.60454
G1 X-99.887 Y17.394 E0.60455
G1 X-100.327 Y14.651 E0.23954
G1 X-100.847 Y10.484 E0.36197
G1 X-101.273 Y4.882 E0.48438
G1 X-101.330 Y3.519 E0.11755
G1 X-101.330 Y-3.519 E0.60678
G1 X-101.273 Y-4.882 E0.11755
G1 X-100.847 Y-10.484 E0.48438
G1 X-100.327 Y-14.651 E0.36197
G1 X-99.887 Y-17.394 E0.23954
G1 X-98.445 Y-24.257 E0.60455
G1 X-96.533 Y-31.004 E0.60454
G1 X-95.647 Y-33.637 E0.23954
G1 X-94.171 Y-37.568 E0.36197
G1 X-91.945 Y-42.727 E0.48439
G1 X-91.362 Y-43.960 E0.11755
G1 X-88.091 Y-50.192 E0.60677
G1 X-87.408 Y-51.372 E0.11755
G1 X-84.427 Y-56.135 E0.48439
G1 X-82.030 Y-59.582 E0.36197
G1 X-80.366 Y-61.807 E0.23954
G1 X-75.900 Y-67.214 E0.60454
G1 X-71.071 Y-72.299 E0.60454
G1 X-69.063 Y-74.219 E0.23955
G1 X-65.929 Y-77.014 E0.36197
G1 X-61.561 Y-80.548 E0.48439
G1 X-60.472 Y-81.368 E0.11754
G1 X-54.679 Y-85.367 E0.60677
G1 X-53.526 Y-86.094 E0.11755
G1 X-48.673 Y-88.926 E0.48439
G1 X-44.948 Y-90.864 E0.36197
G1 X-42.441 Y-92.061 E0.23954
G1 X-35.973 Y-94.773 E0.60454
G1 X-29.335 Y-97.032 E0.60455
G1 X-26.664 Y-97.799 E0.23954
G1 X-22.591 Y-98.817 E0.36197
G1 X-17.080 Y-99.916 E0.48439
G1 X-15.735 Y-100.136 E0.11755
G1 X-8.748 Y-100.985 E0.60677
G1 X-7.388 Y-101.093 E0.11754
G1 X-1.775 Y-101.345 E0.48439
G1 X2.424 Y-101.330 E0.36197
G1 X5.200 Y-101.225 E0.23954
G1 X12.187 Y-100.620 E0.60455
G1 X19.115 Y-99.535 E0.60454
G1 X21.836 Y-98.973 E0.23954
G1 X25.916 Y-97.983 E0.36198
G1 X31.306 Y-96.394 E0.48439
G1 X32.600 Y-95.964 E0.11754
G1 X39.181 Y-93.468 E0.60677
G1 X40.435 Y-92.932 E0.11755
G1 X45.522 Y-90.547 E0.48438
G1 X49.233 Y-88.583 E0.36197
G1 X51.643 Y-87.199 E0.23955
G1 X57.548 Y-83.417 E0.60454
G1 X63.178 Y-79.237 E0.60454
G1 X65.326 Y-77.475 E0.23954
G1 X68.479 Y-74.701 E0.36198
G1 X72.513 Y-70.790 E0.48438
G1 X73.459 Y-69.808 E0.11755
G1 X78.126 Y-64.540 E0.60677
G1 X78.987 Y-63.482 E0.11755
G1 X82.383 Y-59.006 E0.48439
G1 X84.757 Y-55.542 E0.36196
G1 X86.247 Y-53.197 E0.23955
G1 X89.718 Y-47.104 E0.60454
G1 X92.761 Y-40.786 E0.60455
G1 X93.844 Y-38.227 E0.23954
G1 X95.347 Y-34.306 E0.36197
G1 X97.102 Y-28.969 E0.48438
G1 X97.482 Y-27.659 E0.11755
G1 X99.167 Y-20.826 E0.60677
G1 X99.438 Y-19.489 E0.11755
G1 X100.365 Y-13.947 E0.48438
G1 X100.857 Y-9.778 E0.36198
G1 X101.087 Y-7.008 E0.23954
G1 X101.329 Y-0.000 E0.60455
G1 X101.212 Y3.375 E0.29116
G1 X102.054 Y3.524 F4800.000
G1 F1125
G1 X101.932 Y7.058 E0.30481
G1 X101.699 Y9.862 E0.24257
G1 X101.203 Y14.067 E0.36500
G1 X100.270 Y19.643 E0.48741
G1 X99.993 Y21.011 E0.12032
G1 X98.300 Y27.879 E0.60979
G1 X97.910 Y29.219 E0.12032
G1 X96.145 Y34.590 E0.48740
G1 X94.629 Y38.544 E0.36500
G1 X93.533 Y41.135 E0.24256
G1 X90.468 Y47.498 E0.60883
G1 X86.972 Y53.634 E0.60883
G1 X85.463 Y56.009 E0.24257
G1 X83.070 Y59.501 E0.36499
G1 X79.653 Y64.006 E0.48741
G1 X78.771 Y65.088 E0.12032
G1 X78.190 Y65.744 E0.07557
G1 X74.081 Y70.382 E0.53422
G1 X73.113 Y71.388 E0.12032
G1 X69.053 Y75.323 E0.48740
G1 X65.875 Y78.120 E0.36500
G1 X63.699 Y79.904 E0.24256
G1 X58.029 Y84.114 E0.60883
G1 X52.082 Y87.923 E0.60883
G1 X49.642 Y89.324 E0.24257
G1 X45.900 Y91.305 E0.36500
G1 X40.781 Y93.705 E0.48740
G1 X39.497 Y94.254 E0.12032
G1 X38.678 Y94.564 E0.07556
G1 X32.883 Y96.762 E0.53424
G1 X31.559 Y97.202 E0.12031
G1 X26.136 Y98.800 E0.48741
G1 X22.021 Y99.799 E0.36500
G1 X19.266 Y100.368 E0.24256
G1 X12.289 Y101.461 E0.60883
G1 X5.253 Y102.070 E0.60883
G1 X2.441 Y102.177 E0.24257
G1 X-1.793 Y102.191 E0.36500
G1 X-7.441 Y101.938 E0.48741
G1 X-8.832 Y101.827 E0.12032
G1 X-15.854 Y100.974 E0.60979
G1 X-17.231 Y100.749 E0.12032
G1 X-22.776 Y99.643 E0.48741
G1 X-26.883 Y98.616 E0.36499
G1 X-29.588 Y97.839 E0.24257
G1 X-36.274 Y95.565 E0.60883
G1 X-42.787 Y92.834 E0.60883
G1 X-45.326 Y91.622 E0.24257
G1 X-49.082 Y89.667 E0.36499
G1 X-53.965 Y86.818 E0.48741
G1 X-55.145 Y86.073 E0.12032
G1 X-60.967 Y82.055 E0.60980
G1 X-62.081 Y81.215 E0.12031
G1 X-66.477 Y77.660 E0.48741
G1 X-69.637 Y74.841 E0.36499
G1 X-71.671 Y72.897 E0.24257
G1 X-76.533 Y67.775 E0.60883
G1 X-81.031 Y62.331 E0.60883
G1 X-82.716 Y60.077 E0.24257
G1 X-85.134 Y56.601 E0.36499
G1 X-88.133 Y51.809 E0.48741
G1 X-88.832 Y50.601 E0.12032
G1 X-92.120 Y44.338 E0.60979
G1 X-92.717 Y43.076 E0.12032
G1 X-94.957 Y37.885 E0.48741
G1 X-96.444 Y33.921 E0.36499
G1 X-97.341 Y31.254 E0.24257
G1 X-99.267 Y24.460 E0.60883
G1 X-100.720 Y17.548 E0.60883
G1 X-101.165 Y14.770 E0.24257
G1 X-101.689 Y10.569 E0.36499
G1 X-102.118 Y4.931 E0.48740
G1 X-102.176 Y3.537 E0.12032
G1 X-102.176 Y-3.537 E0.60980
G1 X-102.118 Y-4.931 E0.12032
G1 X-101.689 Y-10.569 E0.48741
G1 X-101.165 Y-14.770 E0.36499
G1 X-100.720 Y-17.548 E0.24257
G1 X-99.267 Y-24.460 E0.60883
G1 X-97.341 Y-31.254 E0.60883
G1 X-96.444 Y-33.921 E0.24257
G1 X-94.957 Y-37.885 E0.36499
G1 X-92.717 Y-43.076 E0.48741
G1 X-92.120 Y-44.338 E0.12032
G1 X-88.832 Y-50.601 E0.60979
G1 X-88.133 Y-51.809 E0.12032
G1 X-85.134 Y-56.601 E0.48741
G1 X-82.716 Y-60.077 E0.36499
G1 X-81.031 Y-62.331 E0.24257
G1 X-76.533 Y-67.775 E0.60883
G1 X-71.671 Y-72.897 E0.60882
G1 X-69.637 Y-74.841 E0.24257
G1 X-66.477 Y-77.660 E0.36499
G1 X-62.081 Y-81.215 E0.48741
G1 X-60.967 Y-82.055 E0.12031
G1 X-55.145 Y-86.073 E0.60980
G1 X-53.965 Y-86.818 E0.12032
G1 X-49.082 Y-89.667 E0.48741
G1 X-45.326 Y-91.622 E0.36499
G1 X-42.787 Y-92.834 E0.24257
G1 X-36.274 Y-95.565 E0.60883
G1 X-29.588 Y-97.839 E0.60883
G1 X-26.883 Y-98.616 E0.24257
G1 X-22.776 Y-99.643 E0.36499
G1 X-17.231 Y-100.749 E0.48741
G1 X-15.854 Y-100.974 E0.12032
G1 X-8.832 Y-101.827 E0.60979
G1 X-7.441 Y-101.938 E0.12032
G1 X-1.793 Y-102.191 E0.48741
G1 X2.441 Y-102.177 E0.36499
G1 X5.253 Y-102.070 E0.24256
G1 X12.289 Y-101.461 E0.60883
G1 X19.266 Y-100.368 E0.60883
G1 X22.021 Y-99.799 E0.24256
G1 X26.136 Y-98.800 E0.36500
G1 X31.559 Y-97.202 E0.48741
G1 X32.883 Y-96.762 E0.12031
G1 X39.497 Y-94.254 E0.60980
G1 X40.781 Y-93.705 E0.12032
G1 X45.900 Y-91.305 E0.48740
G1 X49.642 Y-89.324 E0.36500
G1 X52.082 Y-87.923 E0.24257
G1 X58.029 Y-84.114 E0.60883
G1 X63.699 Y-79.904 E0.60883
G1 X65.875 Y-78.120 E0.24256
G1 X69.053 Y-75.323 E0.36500
G1 X73.113 Y-71.388 E0.48741
G1 X74.081 Y-70.382 E0.12032
G1 X78.771 Y-65.088 E0.60979
G1 X79.653 Y-64.006 E0.12032
G1 X83.070 Y-59.501 E0.48741
G1 X85.463 Y-56.009 E0.36499
G1 X86.972 Y-53.634 E0.24257
G1 X90.468 Y-47.498 E0.60883
G1 X93.533 Y-41.135 E0.60883
G1 X94.629 Y-38.544 E0.24256
G1 X96.145 Y-34.590 E0.36500
G1 X97.910 Y-29.219 E0.48740
G1 X98.300 Y-27.879 E0.12032
G1 X99.993 Y-21.011 E0.60979
G1 X100.270 Y-19.643 E0.12032
G1 X101.203 Y-14.067 E0.48741
G1 X101.699 Y-9.862 E0.36500
G1 X101.932 Y-7.058 E0.24256
G1 X102.175 Y-0.000 E0.60883
G1 X102.058 Y3.405 E0.29368
G1 X101.353 Y3.911 F4800.000
G10 ; retract
G1 X92.810 Y-40.020
G11 ; unretract
G1 F1800
G1 X40.743 Y-92.087 E6.34804
G1 X40.175 Y-92.353 E0.05409
G1 X38.637 Y-92.996 E0.14369
G1 X92.971 Y-38.662 E6.62450
G1 X93.256 Y-37.990 E0.06291
G1 X93.759 Y-36.677 E0.12117
G1 X36.709 Y-93.727 E6.95559
G1 X34.781 Y-94.458 E0.17779
G1 X94.502 Y-34.737 E7.28135
G1 X94.749 Y-34.094 E0.05938
G1 X95.141 Y-32.901 E0.10819
G1 X32.852 Y-95.190 E7.59428
G1 X32.387 Y-95.366 E0.04292
G1 X31.031 Y-95.814 E0.12307
G1 X95.727 Y-31.118 E7.88778
G1 X96.313 Y-29.335 E0.16182
G1 X29.334 Y-96.314 E8.16615
G1 X27.637 Y-96.814 E0.15252
G1 X96.834 Y-27.618 E8.43652
G1 X97.232 Y-26.022 E0.14180
G1 X25.940 Y-97.314 E8.69204
G1 X24.347 Y-97.710 E0.14160
G1 X97.624 Y-24.433 E8.93409
G1 X98.015 Y-22.845 E0.14105
G1 X22.766 Y-98.094 E9.17456
G1 X21.208 Y-98.455 E0.13782
G1 X98.407 Y-21.256 E9.41219
G1 X98.547 Y-20.686 E0.05060
G1 X98.743 Y-19.723 E0.08471
G1 X19.700 Y-98.766 E9.63707
G1 X19.001 Y-98.911 E0.06148
G1 X18.239 Y-99.030 E0.06651
G1 X98.998 Y-18.271 E9.84628
G1 X99.239 Y-16.834 E0.12564
G1 X16.820 Y-99.252 E10.04862
G1 X15.401 Y-99.475 E0.12385
G1 X99.479 Y-15.396 E10.25097
G1 X99.719 Y-13.959 E0.12564
G1 X13.982 Y-99.697 E10.45331
G1 X12.562 Y-99.919 E0.12385
G1 X99.885 Y-12.596 E10.64655
G1 X100.045 Y-11.239 E0.11780
G1 X11.217 Y-100.067 E10.83005
G1 X9.907 Y-100.181 E0.11339
G1 X100.205 Y-9.882 E11.00932
G1 X100.320 Y-8.571 E0.11352
G1 X8.597 Y-100.294 E11.18308
G1 X7.286 Y-100.407 E0.11339
G1 X100.428 Y-7.265 E11.35605
G1 X100.486 Y-6.011 E0.10827
G1 X5.976 Y-100.521 E11.52283
G1 X5.161 Y-100.591 E0.07053
G1 X4.691 Y-100.609 E0.04057
G1 X100.529 Y-4.771 E11.68477
G1 X100.571 Y-3.531 E0.10695
G1 X3.446 Y-100.656 E11.84168
G1 X2.209 Y-100.696 E0.10670
G1 X100.614 Y-2.291 E11.99772
G1 X100.657 Y-1.052 E0.10695
G1 X1.008 Y-100.701 E12.14938
G1 X-0.193 Y-100.705 E0.10355
G1 X100.687 Y0.176 E12.29951
G1 X100.647 Y1.333 E0.09981
G1 X-1.394 Y-100.709 E12.44108
G1 X-2.557 Y-100.674 E0.10027
G1 X100.607 Y2.490 E12.57795
G1 X100.568 Y3.647 E0.09981
G1 X-3.702 Y-100.623 E12.71274
G1 X-4.848 Y-100.572 E0.09886
G1 X100.528 Y4.804 E12.84753
G1 X100.488 Y5.961 E0.09981
G1 X-5.993 Y-100.520 E12.98233
G1 X-7.139 Y-100.469 E0.09886
G1 X100.441 Y7.111 E13.11632
G1 X100.349 Y8.216 E0.09561
G1 X-8.254 Y-100.387 E13.24114
G1 X-9.338 Y-100.274 E0.09391
G1 X100.258 Y9.321 E13.36204
G1 X100.144 Y10.404 E0.09388
G1 X-10.405 Y-100.144 E13.47828
G1 X-11.472 Y-100.014 E0.09269
G1 X100.017 Y11.475 E13.59301
G1 X99.891 Y12.546 E0.09295
G1 X-12.540 Y-99.885 E13.70775
G1 X-13.607 Y-99.755 E0.09269
G1 X99.765 Y13.617 E13.82249
G1 X99.603 Y14.652 E0.09036
G1 X-14.674 Y-99.626 E13.93296
G1 X-15.738 Y-99.493 E0.09243
G1 X99.432 Y15.678 E14.04176
G1 X99.260 Y16.703 E0.08964
G1 X-16.767 Y-99.324 E14.14625
G1 X-17.771 Y-99.131 E0.08814
G1 X99.089 Y17.729 E14.24775
G1 X98.917 Y18.754 E0.08964
G1 X-18.769 Y-98.932 E14.34852
G1 X-19.767 Y-98.733 E0.08773
G1 X98.734 Y19.767 E14.44782
G1 X98.529 Y20.760 E0.08735
G1 X-20.765 Y-98.534 E14.54456
G1 X-21.763 Y-98.335 E0.08773
G1 X98.293 Y21.720 E14.63738
G1 X98.056 Y22.680 E0.08526
G1 X-22.748 Y-98.124 E14.72866
G1 X-23.706 Y-97.884 E0.08509
G1 X97.819 Y23.641 E14.81654
G1 X97.583 Y24.601 E0.08526
G1 X-24.663 Y-97.645 E14.90442
G1 X-25.621 Y-97.405 E0.08509
G1 X97.346 Y25.561 E14.99230
G1 X97.109 Y26.522 E0.08526
G1 X-26.576 Y-97.163 E15.07990
G1 X-27.506 Y-96.896 E0.08341
G1 X96.872 Y27.482 E15.16442
G1 X96.603 Y28.409 E0.08328
G1 X-28.436 Y-96.629 E15.24497
G1 X-29.357 Y-96.354 E0.08290
G1 X96.318 Y29.321 E15.32246
G1 X96.022 Y30.222 E0.08175
G1 X-30.250 Y-96.050 E15.39524
G1 X-31.143 Y-95.746 E0.08133
G1 X95.725 Y31.123 E15.46802
G1 X95.429 Y32.023 E0.08175
G1 X-32.036 Y-95.442 E15.54080
G1 X-32.929 Y-95.138 E0.08133
G1 X95.133 Y32.924 E15.61359
G1 X94.837 Y33.825 E0.08175
G1 X-33.822 Y-94.834 E15.68637
G1 X-34.715 Y-94.530 E0.08133
G1 X94.516 Y34.701 E15.75611
G1 X94.184 Y35.566 E0.07989
G1 X-35.608 Y-94.226 E15.82457
G1 X-36.460 Y-93.881 E0.07920
G1 X93.853 Y36.432 E15.88791
G1 X93.521 Y37.297 E0.07989
G1 X-37.303 Y-93.527 E15.95031
G1 X-38.146 Y-93.173 E0.07884
G1 X93.185 Y38.157 E16.01211
G1 X92.829 Y38.998 E0.07873
G1 X-38.990 Y-92.820 E16.07152
G1 X-39.833 Y-92.466 E0.07884
G1 X92.473 Y39.839 E16.13094
G1 X92.110 Y40.674 E0.07845
G1 X-40.676 Y-92.113 E16.18961
G1 X-41.520 Y-91.759 E0.07884
G1 X91.721 Y41.482 E16.24500
G1 X91.332 Y42.290 E0.07731
G1 X-42.356 Y-91.398 E16.29952
G1 X-43.166 Y-91.012 E0.07740
G1 X90.943 Y43.098 E16.35087
G1 X90.554 Y43.906 E0.07731
G1 X-43.976 Y-90.625 E16.40221
G1 X-44.783 Y-90.235 E0.07726
G1 X90.165 Y44.714 E16.45314
G1 X89.776 Y45.522 E0.07731
G1 X-45.570 Y-89.825 E16.50169
G1 X-46.358 Y-89.415 E0.07651
G1 X89.387 Y46.329 E16.55024
G1 X89.156 Y46.809 E0.04587
G1 X88.979 Y47.119 E0.03076
G1 X-47.145 Y-89.005 E16.59653
G1 X-47.932 Y-88.596 E0.07651
G1 X88.545 Y47.881 E16.63955
G1 X88.111 Y48.644 E0.07566
G1 X-48.705 Y-88.172 E16.68085
G1 X-49.461 Y-87.731 E0.07545
G1 X87.676 Y49.407 E16.72004
G1 X87.242 Y50.169 E0.07566
G1 X-50.217 Y-87.290 E16.75924
G1 X-50.973 Y-86.849 E0.07545
G1 X86.807 Y50.932 E16.79843
G1 X86.373 Y51.694 E0.07566
G1 X-51.729 Y-86.408 E16.83763
G1 X-52.485 Y-85.967 E0.07545
G1 X85.938 Y52.457 E16.87682
G1 X85.490 Y53.205 E0.07522
G1 X-53.239 Y-85.524 E16.91414
G1 X-53.973 Y-85.061 E0.07482
G1 X85.025 Y53.937 E16.94692
G1 X84.560 Y54.669 E0.07476
G1 X-54.694 Y-84.585 E16.97808
G1 X-55.402 Y-84.096 E0.07418
G1 X84.088 Y55.395 E17.00697
G1 X83.602 Y56.105 E0.07423
G1 X-56.110 Y-83.607 E17.03397
G1 X-56.819 Y-83.119 E0.07418
G1 X83.115 Y56.815 E17.06098
G1 X82.628 Y57.525 E0.07423
G1 X-57.527 Y-82.630 E17.08798
G1 X-58.235 Y-82.141 E0.07418
G1 X82.142 Y58.236 E17.11498
G1 X81.642 Y58.933 E0.07396
G1 X-58.943 Y-81.652 E17.14040
G1 X-59.651 Y-81.163 E0.07418
G1 X81.126 Y59.614 E17.16378
G1 X80.609 Y60.294 E0.07365
G1 X-60.350 Y-80.665 E17.18603
G1 X-61.033 Y-80.151 E0.07369
G1 X80.093 Y60.975 E17.20631
G1 X79.577 Y61.655 E0.07365
G1 X-61.699 Y-79.620 E17.22455
G1 X-62.360 Y-79.085 E0.07337
G1 X79.060 Y62.336 E17.24227
G1 X78.544 Y63.017 E0.07365
G1 X-63.022 Y-78.549 E17.26000
G1 X-63.684 Y-78.014 E0.07337
G1 X78.009 Y63.679 E17.27544
G1 X77.464 Y64.330 E0.07326
G1 X-64.346 Y-77.479 E17.28964
G1 X-65.007 Y-76.944 E0.07337
G1 X76.901 Y64.965 E17.30177
G1 X76.339 Y65.600 E0.07310
G1 X-65.662 Y-76.402 E17.31309
G1 X-66.295 Y-75.838 E0.07309
G1 X75.777 Y66.234 E17.32166
G1 X75.214 Y66.869 E0.07310
G1 X-66.928 Y-75.273 E17.33024
G1 X-67.560 Y-74.709 E0.07309
G1 X74.652 Y67.504 E17.33881
G1 X74.090 Y68.138 E0.07310
G1 X-68.193 Y-74.144 E17.34739
G1 X-68.819 Y-73.574 E0.07305
G1 X73.528 Y68.773 E17.35519
G1 X72.964 Y69.407 E0.07309
G1 X-69.431 Y-72.989 E17.36109
G1 X-70.043 Y-72.404 E0.07299
G1 X72.377 Y70.016 E17.36412
G1 X71.780 Y70.617 E0.07297
G1 X-70.653 Y-71.817 E17.36577
G1 X-71.236 Y-71.203 E0.07299
G1 X71.173 Y71.206 E17.36275
G1 X70.565 Y71.795 E0.07298
G1 X-71.819 Y-70.589 E17.35972
G1 X-72.402 Y-69.975 E0.07299
G1 X69.957 Y72.384 E17.35670
G1 X69.349 Y72.973 E0.07298
G1 X-72.985 Y-69.361 E17.35368
G1 X-73.568 Y-68.747 E0.07299
G1 X68.741 Y73.563 E17.35066
G1 X68.134 Y74.152 E0.07298
G1 X-74.151 Y-68.133 E17.34763
G1 X-74.734 Y-67.519 E0.07299
G1 X67.501 Y74.716 E17.34157
G1 X66.864 Y75.276 E0.07312
G1 X-75.317 Y-66.905 E17.33502
G1 X-75.866 Y-66.257 E0.07322
G1 X66.227 Y75.836 E17.32433
G1 X65.591 Y76.397 E0.07312
G1 X-76.408 Y-65.602 E17.31272
G1 X-76.949 Y-64.946 E0.07330
G1 X64.954 Y76.957 E17.30110
G1 X64.298 Y77.498 E0.07331
G1 X-77.491 Y-64.291 E17.28710
G1 X-78.032 Y-63.635 E0.07330
G1 X63.640 Y78.037 E17.27295
G1 X62.983 Y78.576 E0.07332
G1 X-78.574 Y-62.980 E17.25881
G1 X-79.115 Y-62.324 E0.07330
G1 X62.304 Y79.095 E17.24214
G1 X61.617 Y79.605 E0.07376
G1 X-79.657 Y-61.669 E17.22440
G1 X-80.180 Y-60.996 E0.07354
G1 X60.930 Y80.115 E17.20448
G1 X60.244 Y80.625 E0.07376
G1 X-80.692 Y-60.311 E17.18317
G1 X-81.205 Y-59.626 E0.07372
G1 X59.557 Y81.135 E17.16186
G1 X58.870 Y81.645 E0.07376
G1 X-81.708 Y-58.933 E17.13953
G1 X-82.199 Y-58.227 E0.07414
G1 X58.183 Y82.155 E17.11563
G1 X57.496 Y82.665 E0.07376
G1 X-82.690 Y-57.521 E17.09174
G1 X-83.181 Y-56.815 E0.07414
G1 X56.785 Y83.152 E17.06497
G1 X56.056 Y83.619 E0.07470
G1 X-83.672 Y-56.109 E17.03587
G1 X-84.147 Y-55.386 E0.07451
G1 X55.326 Y84.086 E17.00477
G1 X54.596 Y84.554 E0.07470
G1 X-84.608 Y-54.650 E16.97199
G1 X-85.068 Y-53.914 E0.07487
G1 X53.867 Y85.021 E16.93921
G1 X53.137 Y85.488 E0.07470
G1 X-85.529 Y-53.178 E16.90643
G1 X-85.990 Y-52.442 E0.07487
G1 X52.407 Y85.956 E16.87365
G1 X51.678 Y86.423 E0.07470
G1 X-86.451 Y-51.705 E16.84087
G1 X-86.909 Y-50.967 E0.07494
G1 X50.933 Y86.875 E16.80594
G1 X50.172 Y87.312 E0.07559
G1 X-87.348 Y-50.209 E16.76675
G1 X-87.772 Y-49.435 E0.07602
G1 X49.412 Y87.748 E16.72568
G1 X48.644 Y88.177 E0.07585
G1 X-88.184 Y-48.650 E16.68222
G1 X-88.596 Y-47.865 E0.07643
G1 X47.861 Y88.591 E16.63702
G1 X47.078 Y89.005 E0.07635
G1 X-89.008 Y-47.080 E16.59182
G1 X-89.420 Y-46.296 E0.07643
G1 X46.296 Y89.420 E16.54663
G1 X45.513 Y89.834 E0.07635
G1 X-89.831 Y-45.511 E16.50143
G1 X-90.243 Y-44.726 E0.07643
G1 X44.709 Y90.227 E16.45368
G1 X43.894 Y90.609 E0.07759
G1 X-90.655 Y-43.941 E16.40456
G1 X-91.049 Y-43.137 E0.07712
G1 X43.079 Y90.991 E16.35320
G1 X42.265 Y91.373 E0.07759
G1 X-91.429 Y-42.321 E16.30022
G1 X-91.790 Y-41.484 E0.07851
G1 X41.450 Y91.755 E16.24486
G1 X40.635 Y92.138 E0.07759
G1 X-92.151 Y-40.648 E16.18949
G1 X-92.512 Y-39.812 E0.07851
G1 X39.810 Y92.509 E16.13288
G1 X38.971 Y92.868 E0.07862
G1 X-92.873 Y-38.976 E16.07463
G1 X-93.233 Y-38.140 E0.07851
G1 X38.104 Y93.198 E16.01293
G1 X37.236 Y93.527 E0.08002
G1 X-93.593 Y-37.303 E15.95098
G1 X-93.920 Y-36.432 E0.08014
G1 X36.369 Y93.856 E15.88499
G1 X35.501 Y94.185 E0.08002
G1 X-94.246 Y-35.562 E15.81901
G1 X-94.573 Y-34.692 E0.08014
G1 X34.633 Y94.514 E15.75303
G1 X33.765 Y94.843 E0.08002
G1 X-94.900 Y-33.821 E15.68704
G1 X-95.213 Y-32.937 E0.08085
G1 X32.897 Y95.173 E15.61938
G1 X32.017 Y95.489 E0.08066
G1 X-95.514 Y-32.042 E15.54878
G1 X-95.815 Y-31.146 E0.08147
G1 X31.119 Y95.788 E15.47600
G1 X30.194 Y96.060 E0.08309
G1 X-96.093 Y-30.227 E15.39717
G1 X-96.358 Y-29.294 E0.08357
G1 X29.269 Y96.333 E15.31668
G1 X28.345 Y96.605 E0.08309
G1 X-96.622 Y-28.362 E15.23618
G1 X-96.886 Y-27.429 E0.08357
G1 X27.420 Y96.878 E15.15569
G1 X26.496 Y97.150 E0.08309
G1 X-97.151 Y-26.496 E15.07519
G1 X-97.415 Y-25.564 E0.08357
G1 X25.564 Y97.415 E14.99378
G1 X24.601 Y97.649 E0.08544
G1 X-97.679 Y-24.631 E14.90859
G1 X-97.828 Y-24.105 E0.04715
G1 X-97.919 Y-23.674 E0.03798
G1 X23.638 Y97.883 E14.82039
G1 X22.674 Y98.117 E0.08544
G1 X-98.127 Y-22.685 E14.72831
G1 X-98.335 Y-21.696 E0.08714
G1 X21.711 Y98.350 E14.63623
G1 X20.720 Y98.556 E0.08730
G1 X-98.543 Y-20.707 E14.54068
G1 X-98.750 Y-19.717 E0.08714
G1 X19.728 Y98.761 E14.44507
G1 X18.724 Y98.954 E0.08811
G1 X-98.958 Y-18.728 E14.34806
G1 X-99.166 Y-17.739 E0.08714
G1 X17.689 Y99.116 E14.24723
G1 X16.654 Y99.278 E0.09031
G1 X-99.351 Y-16.727 E14.14361
G1 X-99.516 Y-15.696 E0.09008
G1 X15.620 Y99.440 E14.03758
G1 X14.585 Y99.602 E0.09031
G1 X-99.682 Y-14.664 E13.93155
G1 X-99.818 Y-13.603 E0.09220
G1 X13.550 Y99.764 E13.82198
G1 X12.515 Y99.927 E0.09031
G1 X-99.951 Y-12.539 E13.71201
G1 X-100.084 Y-11.475 E0.09244
G1 X11.439 Y100.048 E13.59709
G1 X10.338 Y100.143 E0.09533
G1 X-100.216 Y-10.411 E13.47893
G1 X-100.301 Y-9.298 E0.09617
G1 X9.236 Y100.239 E13.35493
G1 X8.134 Y100.334 E0.09533
G1 X-100.385 Y-8.186 E13.23094
G1 X-100.470 Y-7.074 E0.09617
G1 X7.033 Y100.429 E13.10694
G1 X5.931 Y100.525 E0.09533
G1 X-100.555 Y-5.961 E12.98295
G1 X-100.639 Y-4.849 E0.09617
G1 X4.814 Y100.604 E12.85706
G1 X3.661 Y100.648 E0.09949
G1 X-100.687 Y-3.700 E12.72229
G1 X-100.695 Y-2.511 E0.10250
G1 X2.508 Y100.692 E12.58267
G1 X1.318 Y100.699 E0.10255
G1 X-100.695 Y-1.314 E12.43764
G1 X-100.695 Y-0.117 E0.10319
G1 X0.125 Y100.704 E12.29220
G1 X-1.068 Y100.708 E0.10284
G1 X-100.695 Y1.080 E12.14677
G1 X-100.695 Y2.277 E0.10319
G1 X-2.286 Y100.687 E11.99826
G1 X-3.539 Y100.630 E0.10815
G1 X-100.695 Y3.474 E11.84546
G1 X-100.645 Y4.721 E0.10762
G1 X-4.792 Y100.574 E11.68653
G1 X-6.045 Y100.518 E0.10815
G1 X-100.551 Y6.012 E11.52228
G1 X-100.452 Y7.308 E0.11201
G1 X-7.299 Y100.461 E11.35746
G1 X-8.597 Y100.360 E0.11229
G1 X-100.354 Y8.603 E11.18712
G1 X-100.255 Y9.899 E0.11201
G1 X-9.955 Y100.199 E11.00950
G1 X-11.318 Y100.033 E0.11832
G1 X-100.113 Y11.238 E10.82611
G1 X-99.942 Y12.606 E0.11884
G1 X-12.680 Y99.868 E10.63917
G1 X-14.043 Y99.702 E0.11832
G1 X-99.771 Y13.973 E10.45223
G1 X-99.568 Y15.374 E0.12202
G1 X-15.405 Y99.537 E10.26130
G1 X-16.824 Y99.315 E0.12384
G1 X-99.340 Y16.799 E10.06044
G1 X-99.263 Y17.279 E0.04186
G1 X-99.052 Y18.284 E0.08859
G1 X-18.313 Y99.023 E9.84382
G1 X-19.808 Y98.725 E0.13142
G1 X-98.733 Y19.800 E9.62272
G1 X-98.415 Y21.315 E0.13350
G1 X-21.303 Y98.427 E9.40161
G1 X-22.451 Y98.198 E0.10098
G1 X-22.821 Y98.105 E0.03286
G1 X-98.096 Y22.831 E9.17765
G1 X-97.828 Y24.105 E0.11226
G1 X-97.753 Y24.371 E0.02381
G1 X-24.418 Y97.706 E8.94120
G1 X-26.014 Y97.307 E0.14186
G1 X-97.280 Y26.041 E8.68886
G1 X-96.806 Y27.711 E0.14968
G1 X-27.668 Y96.850 E8.42949
G1 X-29.363 Y96.351 E0.15235
G1 X-96.333 Y29.382 E8.16505
G1 X-95.840 Y31.071 E0.15169
G1 X-31.177 Y95.734 E7.88383
G1 X-32.992 Y95.117 E0.16522
G1 X-95.234 Y32.875 E7.58864
G1 X-95.049 Y33.425 E0.05000
G1 X-94.549 Y34.757 E0.12268
G1 X-34.806 Y94.499 E7.28393
G1 X-35.748 Y94.179 E0.08580
G1 X-36.739 Y93.763 E0.09262
G1 X-93.830 Y36.673 E6.96058
G1 X-93.583 Y37.331 E0.06060
G1 X-92.986 Y38.713 E0.12980
G1 X-38.800 Y92.899 E6.60644
G1 X-40.861 Y92.035 E0.19268
G1 X-92.077 Y40.819 E6.24437
G1 X-91.367 Y42.466 E0.15464
G1 X-91.133 Y42.961 E0.04719
G1 X-42.211 Y91.882 E5.96460
G10 ; retract
G1 X-44.487 Y90.803 F4800.000
G11 ; unretract
G1 F1800
G1 X-90.794 Y44.496 E5.64577
G10 ; retract
G1 X-89.472 Y47.016 F4800.000
G11 ; unretract
G1 F1800
G1 X-46.952 Y89.535 E5.18406
G10 ; retract
G1 X-49.584 Y88.100 F4800.000
G11 ; unretract
G1 F1800
G1 X-88.150 Y49.535 E4.70196
G10 ; retract
G1 X-86.439 Y52.443 F4800.000
G11 ; unretract
G1 F1800
G1 X-52.458 Y86.423 E4.14297
G10 ; retract
G1 X-55.780 Y84.298 F4800.000
G11 ; unretract
G1 F1800
G1 X-84.436 Y55.643 E3.49376
G10 ; retract
G1 X-81.772 Y59.503 F4800.000
G11 ; unretract
G1 F1800
G1 X-59.644 Y81.631 E2.69785
G10 ; retract
G1 X91.772 Y-42.255 F4800.000
G11 ; unretract
G1 F1800
G1 X42.997 Y-91.030 E5.94676
G1 X45.252 Y-89.972 E0.21476
G1 X90.660 Y-44.564 E5.53624
G10 ; retract
G1 X89.548 Y-46.873 F4800.000
G11 ; unretract
G1 F1800
G1 X46.879 Y-89.541 E5.20227
G10 ; retract
G1 X49.455 Y-88.163 F4800.000
G11 ; unretract
G1 F1800
G1 X87.987 Y-49.631 E4.69784
G10 ; retract
G1 X86.402 Y-52.413 F4800.000
G11 ; unretract
G1 F1800
G1 X52.406 Y-86.409 E4.14486
G10 ; retract
G1 X55.735 Y-84.277 F4800.000
G11 ; unretract
G1 F1800
G1 X84.405 Y-55.607 E3.49550
G10 ; retract
G1 X81.632 Y-59.577 F4800.000
G11 ; unretract
G1 F1800
G1 X59.721 Y-81.487 E2.67133
G10 ; retract
G1 X64.953 Y-77.452 F4800.000
G11 ; unretract
G1 F1800
G1 X77.174 Y-65.232 E1.48990
M106 S76.5
G10 ; retract
G1 Z0.500 F4800.000
; PURGING FINISHED
G1 X101.509 Y3.506
G11 ; unretract
G1 F3000
G1 X101.388 Y7.027 E0.30376
G1 X101.157 Y9.807 E0.24050
G1 X100.664 Y13.990 E0.36305
G1 X99.734 Y19.545 E0.48558
G1 X99.461 Y20.890 E0.11832
G1 X97.773 Y27.739 E0.60809
G1 X97.390 Y29.057 E0.11833
G1 X95.631 Y34.408 E0.48558
G1 X94.124 Y38.340 E0.36305
G1 X93.036 Y40.909 E0.24050
G1 X89.986 Y47.244 E0.60616
G1 X86.505 Y53.354 E0.60616
G1 X85.009 Y55.708 E0.24051
G1 X82.628 Y59.182 E0.36304
G1 X79.224 Y63.670 E0.48559
G1 X78.357 Y64.734 E0.11833
G1 X76.603 Y66.713 E0.22798
G1 X73.680 Y70.014 E0.38010
G1 X72.728 Y71.002 E0.11832
G1 X68.683 Y74.923 E0.48558
G1 X65.521 Y77.705 E0.36306
G1 X63.365 Y79.474 E0.24050
G1 X57.719 Y83.665 E0.60616
G1 X51.798 Y87.458 E0.60616
G1 X49.379 Y88.847 E0.24051
G1 X45.657 Y90.817 E0.36305
G1 X40.557 Y93.208 E0.48558
G1 X39.295 Y93.748 E0.11833
G1 X32.700 Y96.249 E0.60809
G1 X31.397 Y96.682 E0.11832
G1 X25.994 Y98.274 E0.48558
G1 X21.902 Y99.268 E0.36305
G1 X19.170 Y99.832 E0.24049
G1 X12.223 Y100.920 E0.60616
G1 X5.218 Y101.526 E0.60616
G1 X2.430 Y101.632 E0.24050
G1 X-1.781 Y101.646 E0.36305
G1 X-7.408 Y101.394 E0.48558
G1 X-8.776 Y101.285 E0.11832
G1 X-15.779 Y100.435 E0.60809
G1 X-17.133 Y100.213 E0.11832
G1 X-22.657 Y99.112 E0.48558
G1 X-26.742 Y98.090 E0.36305
G1 X-29.424 Y97.320 E0.24050
G1 X-36.080 Y95.055 E0.60616
G1 X-42.565 Y92.336 E0.60616
G1 X-45.082 Y91.134 E0.24050
G1 X-48.818 Y89.190 E0.36305
G1 X-53.683 Y86.351 E0.48559
G1 X-54.844 Y85.619 E0.11832
G1 X-60.649 Y81.612 E0.60809
G1 X-61.745 Y80.786 E0.11832
G1 X-66.125 Y77.244 E0.48559
G1 X-69.267 Y74.441 E0.36305
G1 X-71.284 Y72.513 E0.24050
G1 X-76.125 Y67.414 E0.60616
G1 X-80.604 Y61.993 E0.60616
G1 X-82.274 Y59.759 E0.24050
G1 X-84.679 Y56.301 E0.36305
G1 X-87.667 Y51.527 E0.48558
G1 X-88.355 Y50.339 E0.11832
G1 X-91.633 Y44.093 E0.60809
G1 X-92.220 Y42.853 E0.11832
G1 X-94.451 Y37.681 E0.48559
G1 X-95.931 Y33.738 E0.36305
G1 X-96.821 Y31.094 E0.24050
G1 X-98.738 Y24.329 E0.60616
G1 X-100.184 Y17.448 E0.60616
G1 X-100.625 Y14.693 E0.24050
G1 X-101.147 Y10.515 E0.36305
G1 X-101.575 Y4.898 E0.48558
G1 X-101.631 Y3.527 E0.11832
G1 X-101.631 Y-3.527 E0.60810
G1 X-101.575 Y-4.898 E0.11832
G1 X-101.147 Y-10.515 E0.48558
G1 X-100.625 Y-14.693 E0.36305
G1 X-100.184 Y-17.448 E0.24050
G1 X-98.738 Y-24.329 E0.60616
G1 X-96.821 Y-31.094 E0.60616
G1 X-95.931 Y-33.738 E0.24050
G1 X-94.451 Y-37.681 E0.36305
G1 X-92.220 Y-42.853 E0.48558
G1 X-91.633 Y-44.093 E0.11832
G1 X-88.355 Y-50.339 E0.60809
G1 X-87.667 Y-51.527 E0.11832
G1 X-84.679 Y-56.301 E0.48558
G1 X-82.274 Y-59.759 E0.36305
G1 X-80.604 Y-61.993 E0.24050
G1 X-76.125 Y-67.414 E0.60616
G1 X-71.284 Y-72.513 E0.60616
G1 X-69.267 Y-74.441 E0.24050
G1 X-66.125 Y-77.244 E0.36305
G1 X-61.745 Y-80.786 E0.48559
G1 X-60.649 Y-81.612 E0.11832
G1 X-54.844 Y-85.619 E0.60809
G1 X-53.683 Y-86.351 E0.11832
G1 X-48.818 Y-89.190 E0.48559
G1 X-45.082 Y-91.134 E0.36304
G1 X-42.565 Y-92.336 E0.24050
G1 X-36.080 Y-95.055 E0.60616
G1 X-29.424 Y-97.320 E0.60616
G1 X-26.742 Y-98.090 E0.24050
G1 X-22.657 Y-99.112 E0.36305
G1 X-17.133 Y-100.213 E0.48558
G1 X-15.779 Y-100.435 E0.11832
G1 X-8.776 Y-101.285 E0.60809
G1 X-7.408 Y-101.394 E0.11832
G1 X-1.781 Y-101.646 E0.48559
G1 X2.430 Y-101.632 E0.36305
G1 X5.218 Y-101.526 E0.24050
G1 X12.223 Y-100.920 E0.60616
G1 X19.170 Y-99.832 E0.60616
G1 X21.902 Y-99.268 E0.24049
G1 X25.994 Y-98.274 E0.36305
G1 X31.397 Y-96.682 E0.48558
G1 X32.700 Y-96.249 E0.11832
G1 X39.295 Y-93.748 E0.60809
G1 X40.557 Y-93.208 E0.11833
G1 X45.657 Y-90.817 E0.48558
G1 X49.379 Y-88.847 E0.36305
G1 X51.798 Y-87.458 E0.24051
G1 X57.719 Y-83.666 E0.60616
G1 X63.365 Y-79.474 E0.60616
G1 X65.521 Y-77.705 E0.24050
G1 X68.683 Y-74.923 E0.36306
G1 X72.728 Y-71.002 E0.48558
G1 X73.680 Y-70.014 E0.11832
G1 X78.357 Y-64.734 E0.60809
G1 X79.224 Y-63.670 E0.11833
G1 X82.628 Y-59.182 E0.48559
G1 X85.009 Y-55.708 E0.36304
G1 X86.505 Y-53.354 E0.24051
G1 X89.986 Y-47.244 E0.60616
G1 X93.036 Y-40.909 E0.60616
G1 X94.124 Y-38.340 E0.24050
G1 X95.631 Y-34.408 E0.36305
G1 X97.390 Y-29.057 E0.48558
G1 X97.773 Y-27.739 E0.11833
G1 X99.461 Y-20.890 E0.60809
G1 X99.734 Y-19.545 E0.11832
G1 X100.664 Y-13.990 E0.48558
G1 X101.157 Y-9.807 E0.36305
G1 X101.388 Y-7.027 E0.24050
G1 X101.630 Y-0.000 E0.60616
G1 X101.513 Y3.386 E0.29206
G1 X102.355 Y3.535 F4800.000
G1 F2250
G1 X102.233 Y7.077 E0.30553
G1 X101.999 Y9.892 E0.24352
G1 X101.502 Y14.109 E0.36608
G1 X100.567 Y19.699 E0.48860
G1 X100.287 Y21.076 E0.12109
G1 X98.591 Y27.959 E0.61111
G1 X98.199 Y29.307 E0.12110
G1 X96.429 Y34.692 E0.48860
G1 X94.909 Y38.657 E0.36607
G1 X93.808 Y41.258 E0.24352
G1 X90.735 Y47.638 E0.61044
G1 X87.230 Y53.790 E0.61044
G1 X85.715 Y56.175 E0.24353
G1 X83.315 Y59.677 E0.36606
G1 X79.889 Y64.193 E0.48861
G1 X79.002 Y65.282 E0.12110
G1 X77.237 Y67.274 E0.22949
G1 X74.301 Y70.588 E0.38162
G1 X73.327 Y71.600 E0.12109
G1 X69.258 Y75.545 E0.48860
G1 X66.070 Y78.350 E0.36608
G1 X63.886 Y80.141 E0.24352
G1 X58.200 Y84.362 E0.61044
G1 X52.237 Y88.181 E0.61044
G1 X49.788 Y89.588 E0.24353
G1 X46.035 Y91.575 E0.36607
G1 X40.903 Y93.981 E0.48860
G1 X39.611 Y94.533 E0.12110
G1 X32.983 Y97.046 E0.61112
G1 X31.650 Y97.490 E0.12109
G1 X26.214 Y99.092 E0.48861
G1 X22.087 Y100.094 E0.36607
G1 X19.321 Y100.665 E0.24352
G1 X12.325 Y101.761 E0.61045
G1 X5.270 Y102.371 E0.61045
G1 X2.448 Y102.478 E0.24352
G1 X-1.799 Y102.493 E0.36607
G1 X-7.461 Y102.239 E0.48861
G1 X-8.861 Y102.127 E0.12109
G1 X-15.898 Y101.273 E0.61111
G1 X-17.284 Y101.046 E0.12109
G1 X-22.843 Y99.938 E0.48861
G1 X-26.962 Y98.907 E0.36607
G1 X-29.677 Y98.128 E0.24352
G1 X-36.381 Y95.847 E0.61045
G1 X-42.911 Y93.109 E0.61044
G1 X-45.460 Y91.892 E0.24352
G1 X-49.227 Y89.931 E0.36607
G1 X-54.122 Y87.075 E0.48861
G1 X-55.310 Y86.326 E0.12110
G1 X-61.144 Y82.299 E0.61112
G1 X-62.266 Y81.454 E0.12109
G1 X-66.673 Y77.889 E0.48861
G1 X-69.842 Y75.063 E0.36607
G1 X-71.883 Y73.110 E0.24352
G1 X-76.759 Y67.975 E0.61044
G1 X-81.269 Y62.516 E0.61045
G1 X-82.961 Y60.254 E0.24352
G1 X-85.385 Y56.768 E0.36607
G1 X-88.392 Y51.964 E0.48861
G1 X-89.096 Y50.748 E0.12109
G1 X-92.390 Y44.471 E0.61111
G1 X-92.991 Y43.201 E0.12110
G1 X-95.236 Y37.997 E0.48861
G1 X-96.729 Y34.022 E0.36607
G1 X-97.629 Y31.344 E0.24352
G1 X-99.560 Y24.532 E0.61044
G1 X-101.016 Y17.602 E0.61045
G1 X-101.463 Y14.813 E0.24352
G1 X-101.990 Y10.599 E0.36607
G1 X-102.420 Y4.948 E0.48861
G1 X-102.478 Y3.544 E0.12109
G1 X-102.478 Y-3.544 E0.61112
G1 X-102.420 Y-4.948 E0.12109
G1 X-101.990 Y-10.599 E0.48860
G1 X-101.463 Y-14.813 E0.36607
G1 X-101.016 Y-17.602 E0.24352
G1 X-99.560 Y-24.532 E0.61045
G1 X-97.629 Y-31.344 E0.61044
G1 X-96.729 Y-34.022 E0.24352
G1 X-95.236 Y-37.997 E0.36607
G1 X-92.991 Y-43.201 E0.48861
G1 X-92.390 Y-44.471 E0.12110
G1 X-89.096 Y-50.748 E0.61111
G1 X-88.392 Y-51.964 E0.12109
G1 X-85.385 Y-56.768 E0.48861
G1 X-82.961 Y-60.254 E0.36607
G1 X-81.269 Y-62.516 E0.24352
G1 X-76.759 Y-67.975 E0.61045
G1 X-71.883 Y-73.110 E0.61044
G1 X-69.842 Y-75.063 E0.24352
G1 X-66.673 Y-77.889 E0.36607
G1 X-62.266 Y-81.454 E0.48861
G1 X-61.144 Y-82.299 E0.12109
G1 X-55.310 Y-86.326 E0.61111
G1 X-54.122 Y-87.075 E0.12110
G1 X-49.227 Y-89.931 E0.48861
G1 X-45.460 Y-91.892 E0.36607
G1 X-42.911 Y-93.109 E0.24352
G1 X-36.381 Y-95.847 E0.61045
G1 X-29.677 Y-98.128 E0.61045
G1 X-26.962 Y-98.907 E0.24352
G1 X-22.843 Y-99.938 E0.36607
G1 X-17.284 Y-101.046 E0.48861
G1 X-15.898 Y-101.273 E0.12109
G1 X-8.861 Y-102.127 E0.61111
G1 X-7.461 Y-102.239 E0.12109
G1 X-1.799 Y-102.493 E0.48861
G1 X2.448 Y-102.478 E0.36607
G1 X5.270 Y-102.371 E0.24352
G1 X12.325 Y-101.761 E0.61045
G1 X19.321 Y-100.665 E0.61045
G1 X22.087 Y-100.094 E0.24352
G1 X26.214 Y-99.092 E0.36607
G1 X31.650 Y-97.490 E0.48860
G1 X32.983 Y-97.046 E0.12109
G1 X39.611 Y-94.533 E0.61112
G1 X40.903 Y-93.981 E0.12110
G1 X46.035 Y-91.575 E0.48860
G1 X49.788 Y-89.588 E0.36607
G1 X52.237 Y-88.181 E0.24353
G1 X58.200 Y-84.362 E0.61044
G1 X63.886 Y-80.141 E0.61044
G1 X66.070 Y-78.350 E0.24352
G1 X69.258 Y-75.545 E0.36608
G1 X73.327 Y-71.600 E0.48860
G1 X74.301 Y-70.588 E0.12109
G1 X79.002 Y-65.282 E0.61111
G1 X79.889 Y-64.193 E0.12110
G1 X83.315 Y-59.677 E0.48861
G1 X85.715 Y-56.175 E0.36606
G1 X87.230 Y-53.790 E0.24353
G1 X90.735 Y-47.638 E0.61044
G1 X93.808 Y-41.258 E0.61044
G1 X94.909 Y-38.657 E0.24352
G1 X96.429 Y-34.692 E0.36607
G1 X98.199 Y-29.307 E0.48860
G1 X98.591 Y-27.959 E0.12110
G1 X100.287 Y-21.076 E0.61111
G1 X100.567 Y-19.699 E0.12109
G1 X101.502 Y-14.109 E0.48860
G1 X101.999 Y-9.892 E0.36608
G1 X102.233 Y-7.077 E0.24352
G1 X102.477 Y-0.000 E0.61044
G1 X102.359 Y3.415 E0.29457
G1 X101.655 Y3.922 F4800.000
G10 ; retract
G1 X20.366 Y99.326
G11 ; unretract
G1 F3600
G1 X98.810 Y20.882 E9.56360
G1 X99.110 Y19.430 E0.12787
G1 X100.035 Y13.900 E0.48332
G1 X100.525 Y9.744 E0.36079
G1 X100.754 Y6.990 E0.23823
G1 X100.995 Y-0.000 E0.60295
G1 X100.820 Y-5.067 E0.43705
G1 X-5.108 Y100.862 E12.91449
G1 X-7.369 Y100.760 E0.19507
G1 X-8.713 Y100.653 E0.11624
G1 X-15.689 Y99.806 E0.60582
G1 X-17.020 Y99.588 E0.11625
G1 X-22.518 Y98.492 E0.48332
G1 X-25.845 Y97.660 E0.29565
G1 X97.601 Y-25.786 E15.05017
G1 X97.160 Y-27.574 E0.15879
G1 X96.784 Y-28.869 E0.11625
G1 X95.033 Y-34.195 E0.48331
G1 X93.535 Y-38.103 E0.36078
G1 X92.458 Y-40.648 E0.23823
G1 X91.179 Y-43.303 E0.25403
G1 X-43.371 Y91.248 E16.40401
G1 X-44.799 Y90.566 E0.13641
G1 X-48.511 Y88.634 E0.36078
G1 X-53.354 Y85.809 E0.48332
G1 X-54.494 Y85.089 E0.11625
G1 X-58.433 Y82.371 E0.41254
G1 X82.372 Y-58.433 E17.16647
G1 X82.113 Y-58.811 E0.03943
G1 X78.725 Y-63.277 E0.48332
G1 X77.873 Y-64.323 E0.11625
G1 X73.213 Y-69.583 E0.60582
G1 X72.278 Y-70.554 E0.11624
G1 X71.403 Y-71.403 E0.10509
G1 X-71.433 Y71.433 E17.41417
G1 X-75.650 Y66.993 E0.52791
G1 X-80.104 Y61.601 E0.60295
G1 X-81.759 Y59.388 E0.23823
G1 X-82.402 Y58.464 E0.09702
G1 X58.418 Y-82.356 E17.16835
G1 X57.358 Y-83.143 E0.11375
G1 X51.469 Y-86.915 E0.60295
G1 X49.072 Y-88.291 E0.23824
G1 X45.373 Y-90.249 E0.36078
G1 X43.330 Y-91.207 E0.19456
G1 X-91.264 Y43.388 E16.40937
G1 X-91.641 Y42.591 E0.07596
G1 X-93.862 Y37.443 E0.48332
G1 X-95.333 Y33.525 E0.36078
G1 X-96.214 Y30.906 E0.23823
G1 X-97.651 Y25.836 E0.45431
G1 X25.842 Y-97.657 E15.05592
G1 X21.763 Y-98.648 E0.36190
G1 X19.056 Y-99.207 E0.23823
G1 X12.146 Y-100.289 E0.60295
G1 X5.140 Y-100.894 E0.60623
G1 X-100.918 Y5.164 E12.93031
G1 X-100.997 Y3.514 E0.14244
G1 X-100.997 Y-3.514 E0.60584
G1 X-100.941 Y-4.861 E0.11624
G1 X-100.515 Y-10.451 E0.48331
G1 X-99.997 Y-14.604 E0.36078
G1 X-99.560 Y-17.333 E0.23823
G1 X-98.815 Y-20.877 E0.31225
G1 X-20.386 Y-99.305 E9.56176
G10 ; retract
G1 Z0.750 F4800.000
; PURGING FINISHED
G1 X101.611 Y3.509
G11 ; unretract
G1 F3000
G1 X101.489 Y7.034 E0.30406
G1 X101.258 Y9.817 E0.24074
G1 X100.764 Y14.004 E0.36342
G1 X99.834 Y19.565 E0.48606
G1 X99.561 Y20.911 E0.11844
G1 X97.871 Y27.767 E0.60869
G1 X97.487 Y29.086 E0.11845
G1 X95.727 Y34.442 E0.48607
G1 X94.218 Y38.379 E0.36341
G1 X93.129 Y40.950 E0.24074
G1 X90.076 Y47.291 E0.60677
G1 X86.592 Y53.407 E0.60677
G1 X85.094 Y55.764 E0.24075
G1 X82.711 Y59.241 E0.36340
G1 X79.303 Y63.733 E0.48607
G1 X78.435 Y64.798 E0.11845
G1 X75.500 Y68.111 E0.38155
G1 X73.753 Y70.083 E0.22714
G1 X72.800 Y71.073 E0.11844
G1 X68.752 Y74.998 E0.48607
G1 X65.587 Y77.782 E0.36342
G1 X63.428 Y79.553 E0.24074
G1 X57.777 Y83.749 E0.60676
G1 X51.850 Y87.545 E0.60676
G1 X49.428 Y88.936 E0.24075
G1 X45.702 Y90.908 E0.36341
G1 X40.598 Y93.301 E0.48606
G1 X39.334 Y93.841 E0.11845
G1 X32.732 Y96.345 E0.60869
G1 X31.429 Y96.779 E0.11845
G1 X26.020 Y98.372 E0.48607
G1 X21.924 Y99.367 E0.36341
G1 X19.189 Y99.932 E0.24074
G1 X12.235 Y101.021 E0.60677
G1 X5.223 Y101.628 E0.60676
G1 X2.433 Y101.734 E0.24074
G1 X-1.783 Y101.748 E0.36342
G1 X-7.416 Y101.495 E0.48607
G1 X-8.785 Y101.386 E0.11844
G1 X-15.794 Y100.535 E0.60870
G1 X-17.150 Y100.313 E0.11844
G1 X-22.680 Y99.211 E0.48607
G1 X-26.769 Y98.188 E0.36342
G1 X-29.453 Y97.417 E0.24074
G1 X-36.116 Y95.150 E0.60677
G1 X-42.607 Y92.428 E0.60677
G1 X-45.127 Y91.225 E0.24074
G1 X-48.867 Y89.279 E0.36341
G1 X-53.737 Y86.438 E0.48607
G1 X-54.899 Y85.705 E0.11844
G1 X-60.710 Y81.694 E0.60869
G1 X-61.807 Y80.867 E0.11844
G1 X-66.191 Y77.321 E0.48607
G1 X-69.337 Y74.515 E0.36341
G1 X-71.355 Y72.585 E0.24074
G1 X-76.201 Y67.481 E0.60676
G1 X-80.684 Y62.055 E0.60677
G1 X-82.357 Y59.819 E0.24074
G1 X-84.763 Y56.358 E0.36341
G1 X-87.755 Y51.578 E0.48606
G1 X-88.443 Y50.389 E0.11844
G1 X-91.724 Y44.137 E0.60870
G1 X-92.312 Y42.895 E0.11844
G1 X-94.546 Y37.719 E0.48607
G1 X-96.027 Y33.772 E0.36341
G1 X-96.917 Y31.125 E0.24074
G1 X-98.837 Y24.353 E0.60676
G1 X-100.284 Y17.466 E0.60677
G1 X-100.726 Y14.708 E0.24074
G1 X-101.248 Y10.525 E0.36341
G1 X-101.676 Y4.903 E0.48606
G1 X-101.733 Y3.530 E0.11844
G1 X-101.733 Y-3.530 E0.60871
G1 X-101.676 Y-4.903 E0.11844
G1 X-101.248 Y-10.525 E0.48606
G1 X-100.726 Y-14.708 E0.36341
G1 X-100.284 Y-17.466 E0.24074
G1 X-98.837 Y-24.353 E0.60677
G1 X-96.917 Y-31.125 E0.60676
G1 X-96.027 Y-33.772 E0.24074
G1 X-94.546 Y-37.719 E0.36341
G1 X-92.312 Y-42.895 E0.48607
G1 X-91.724 Y-44.137 E0.11845
G1 X-88.443 Y-50.389 E0.60869
G1 X-87.755 Y-51.578 E0.11844
G1 X-84.763 Y-56.358 E0.48606
G1 X-82.357 Y-59.819 E0.36341
G1 X-80.684 Y-62.055 E0.24074
G1 X-76.201 Y-67.481 E0.60677
G1 X-71.355 Y-72.585 E0.60676
G1 X-69.337 Y-74.515 E0.24074
G1 X-66.191 Y-77.321 E0.36341
G1 X-61.807 Y-80.867 E0.48607
G1 X-60.710 Y-81.694 E0.11844
G1 X-54.899 Y-85.705 E0.60869
G1 X-53.737 Y-86.438 E0.11844
G1 X-48.867 Y-89.279 E0.48607
G1 X-45.127 Y-91.225 E0.36341
G1 X-42.607 Y-92.428 E0.24074
G1 X-36.116 Y-95.150 E0.60677
G1 X-29.453 Y-97.417 E0.60677
G1 X-26.769 Y-98.188 E0.24074
G1 X-22.680 Y-99.211 E0.36341
G1 X-17.150 Y-100.313 E0.48607
G1 X-15.794 Y-100.535 E0.11845
G1 X-11.401 Y-101.069 E0.38149
G1 X-8.785 Y-101.386 E0.22720
G1 X-7.415 Y-101.495 E0.11844
G1 X-1.783 Y-101.748 E0.48607
G1 X2.433 Y-101.734 E0.36342
G1 X5.223 Y-101.628 E0.24074
G1 X12.235 Y-101.021 E0.60676
G1 X19.189 Y-99.932 E0.60677
G1 X21.924 Y-99.367 E0.24074
G1 X26.020 Y-98.372 E0.36341
G1 X31.429 Y-96.779 E0.48607
G1 X32.732 Y-96.345 E0.11845
G1 X39.334 Y-93.841 E0.60869
G1 X40.598 Y-93.301 E0.11845
G1 X45.702 Y-90.908 E0.48606
G1 X49.428 Y-88.936 E0.36341
G1 X51.850 Y-87.545 E0.24075
G1 X57.777 Y-83.749 E0.60676
G1 X63.428 Y-79.553 E0.60676
G1 X65.587 Y-77.782 E0.24074
G1 X68.752 Y-74.998 E0.36342
G1 X72.800 Y-71.073 E0.48607
G1 X73.753 Y-70.083 E0.11844
G1 X78.435 Y-64.798 E0.60869
G1 X79.303 Y-63.733 E0.11845
G1 X82.711 Y-59.241 E0.48607
G1 X85.094 Y-55.764 E0.36340
G1 X86.592 Y-53.407 E0.24075
G1 X90.076 Y-47.291 E0.60676
G1 X93.129 Y-40.950 E0.60677
G1 X94.218 Y-38.379 E0.24074
G1 X95.727 Y-34.442 E0.36341
G1 X97.487 Y-29.086 E0.48607
G1 X97.871 Y-27.767 E0.11845
G1 X99.561 Y-20.911 E0.60869
G1 X99.834 Y-19.565 E0.11844
G1 X100.764 Y-14.004 E0.48606
G1 X101.258 Y-9.817 E0.36342
G1 X101.489 Y-7.034 E0.24074
G1 X101.732 Y-0.000 E0.60677
G1 X101.615 Y3.389 E0.29236
G1 X102.456 Y3.538 F4800.000
G1 F2250
G1 X102.334 Y7.084 E0.30583
G1 X102.100 Y9.902 E0.24376
G1 X101.602 Y14.123 E0.36644
G1 X100.666 Y19.719 E0.48909
G1 X100.387 Y21.097 E0.12122
G1 X98.689 Y27.986 E0.61172
G1 X98.296 Y29.336 E0.12122
G1 X96.524 Y34.726 E0.48909
G1 X95.003 Y38.695 E0.36643
G1 X93.901 Y41.299 E0.24376
G1 X90.825 Y47.685 E0.61105
G1 X87.317 Y53.844 E0.61105
G1 X85.800 Y56.230 E0.24377
G1 X83.398 Y59.737 E0.36643
G1 X79.968 Y64.256 E0.48909
G1 X79.080 Y65.347 E0.12122
G1 X76.134 Y68.673 E0.38306
G1 X74.375 Y70.658 E0.22865
G1 X73.400 Y71.671 E0.12122
G1 X69.326 Y75.620 E0.48909
G1 X66.135 Y78.427 E0.36644
G1 X63.949 Y80.221 E0.24376
G1 X58.258 Y84.446 E0.61105
G1 X52.289 Y88.269 E0.61105
G1 X49.837 Y89.677 E0.24377
G1 X46.080 Y91.665 E0.36644
G1 X40.944 Y94.074 E0.48909
G1 X39.651 Y94.626 E0.12122
G1 X33.016 Y97.143 E0.61172
G1 X31.682 Y97.586 E0.12122
G1 X26.240 Y99.190 E0.48909
G1 X22.109 Y100.193 E0.36644
G1 X19.340 Y100.765 E0.24376
G1 X12.337 Y101.861 E0.61105
G1 X5.276 Y102.473 E0.61105
G1 X2.450 Y102.580 E0.24376
G1 X-1.800 Y102.594 E0.36644
G1 X-7.468 Y102.340 E0.48909
G1 X-8.870 Y102.229 E0.12121
G1 X-15.914 Y101.373 E0.61172
G1 X-17.301 Y101.146 E0.12121
G1 X-22.865 Y100.037 E0.48909
G1 X-26.989 Y99.005 E0.36644
G1 X-29.706 Y98.225 E0.24376
G1 X-36.417 Y95.942 E0.61105
G1 X-42.953 Y93.201 E0.61105
G1 X-45.505 Y91.983 E0.24376
G1 X-49.276 Y90.021 E0.36643
G1 X-54.176 Y87.161 E0.48909
G1 X-55.365 Y86.411 E0.12122
G1 X-61.205 Y82.380 E0.61172
G1 X-62.328 Y81.534 E0.12121
G1 X-66.739 Y77.966 E0.48910
G1 X-69.911 Y75.137 E0.36643
G1 X-71.955 Y73.183 E0.24376
G1 X-76.835 Y68.043 E0.61105
G1 X-81.350 Y62.578 E0.61105
G1 X-83.043 Y60.314 E0.24377
G1 X-85.470 Y56.824 E0.36643
G1 X-88.480 Y52.015 E0.48909
G1 X-89.184 Y50.798 E0.12122
G1 X-92.482 Y44.515 E0.61172
G1 X-93.083 Y43.244 E0.12122
G1 X-95.331 Y38.035 E0.48909
G1 X-96.824 Y34.056 E0.36643
G1 X-97.726 Y31.376 E0.24377
G1 X-99.659 Y24.556 E0.61105
G1 X-101.117 Y17.620 E0.61105
G1 X-101.564 Y14.828 E0.24377
G1 X-102.091 Y10.610 E0.36643
G1 X-102.521 Y4.953 E0.48909
G1 X-102.579 Y3.548 E0.12121
G1 X-102.579 Y-3.548 E0.61173
G1 X-102.521 Y-4.953 E0.12121
G1 X-102.091 Y-10.610 E0.48909
G1 X-101.564 Y-14.828 E0.36643
G1 X-101.117 Y-17.620 E0.24377
G1 X-99.659 Y-24.556 E0.61105
G1 X-97.726 Y-31.375 E0.61105
G1 X-96.824 Y-34.056 E0.24377
G1 X-95.331 Y-38.035 E0.36643
G1 X-93.083 Y-43.244 E0.48909
G1 X-92.482 Y-44.515 E0.12122
G1 X-89.184 Y-50.798 E0.61172
G1 X-88.480 Y-52.015 E0.12122
G1 X-85.470 Y-56.824 E0.48909
G1 X-83.043 Y-60.314 E0.36643
G1 X-81.350 Y-62.578 E0.24377
G1 X-76.835 Y-68.043 E0.61105
G1 X-71.955 Y-73.183 E0.61105
G1 X-69.911 Y-75.137 E0.24376
G1 X-66.739 Y-77.966 E0.36643
G1 X-62.328 Y-81.534 E0.48910
G1 X-61.205 Y-82.380 E0.12121
G1 X-55.365 Y-86.411 E0.61172
G1 X-54.176 Y-87.161 E0.12122
G1 X-49.276 Y-90.021 E0.48909
G1 X-45.505 Y-91.983 E0.36643
G1 X-42.953 Y-93.201 E0.24376
G1 X-36.417 Y-95.942 E0.61105
G1 X-29.706 Y-98.225 E0.61105
G1 X-26.989 Y-99.005 E0.24376
G1 X-22.865 Y-100.037 E0.36644
G1 X-17.301 Y-101.146 E0.48909
G1 X-15.914 Y-101.373 E0.12121
G1 X-11.503 Y-101.909 E0.38300
G1 X-8.870 Y-102.229 E0.22872
G1 X-7.468 Y-102.340 E0.12121
G1 X-1.800 Y-102.594 E0.48909
G1 X2.450 Y-102.580 E0.36644
G1 X5.276 Y-102.473 E0.24376
G1 X12.337 Y-101.861 E0.61105
G1 X19.340 Y-100.765 E0.61105
G1 X22.109 Y-100.193 E0.24376
G1 X26.240 Y-99.190 E0.36644
G1 X31.682 Y-97.586 E0.48909
G1 X33.016 Y-97.143 E0.12122
G1 X39.651 Y-94.626 E0.61172
G1 X40.944 Y-94.074 E0.12122
G1 X46.080 Y-91.665 E0.48909
G1 X49.837 Y-89.677 E0.36644
G1 X52.289 Y-88.269 E0.24377
G1 X58.258 Y-84.446 E0.61105
G1 X63.949 Y-80.221 E0.61105
G1 X66.135 Y-78.427 E0.24376
G1 X69.326 Y-75.620 E0.36644
G1 X73.400 Y-71.671 E0.48909
G1 X74.375 Y-70.658 E0.12121
G1 X79.080 Y-65.347 E0.61172
G1 X79.968 Y-64.256 E0.12122
G1 X83.398 Y-59.737 E0.48909
G1 X85.800 Y-56.230 E0.36643
G1 X87.317 Y-53.844 E0.24377
G1 X90.825 Y-47.685 E0.61105
G1 X93.901 Y-41.299 E0.61105
G1 X95.003 Y-38.695 E0.24376
G1 X96.524 Y-34.726 E0.36643
G1 X98.296 Y-29.336 E0.48909
G1 X98.689 Y-27.986 E0.12122
G1 X100.387 Y-21.097 E0.61172
G1 X100.666 Y-19.719 E0.12122
G1 X101.602 Y-14.123 E0.48909
G1 X102.100 Y-9.902 E0.36644
G1 X102.334 Y-7.084 E0.24376
G1 X102.579 Y-0.000 E0.61105
G1 X102.461 Y3.418 E0.29488
G1 X101.756 Y3.925 F4800.000
G10 ; retract
G1 X99.434 Y-20.257
G11 ; unretract
G1 F3600
G1 X20.726 Y-98.966 E9.59595
G1 X19.076 Y-99.307 E0.14526
G1 X12.159 Y-100.390 E0.60356
G1 X5.184 Y-100.994 E0.60355
G1 X2.420 Y-101.099 E0.23847
G1 X-1.770 Y-101.113 E0.36115
G1 X-5.206 Y-100.959 E0.29649
G1 X100.918 Y5.165 E12.93832
G1 X100.855 Y6.997 E0.15804
G1 X100.626 Y9.754 E0.23847
G1 X100.136 Y13.914 E0.36115
G1 X99.210 Y19.449 E0.48380
G1 X98.941 Y20.772 E0.11637
G1 X97.685 Y25.870 E0.45262
G1 X-25.929 Y-97.744 E15.07061
G1 X-26.604 Y-97.575 E0.06006
G1 X-29.263 Y-96.811 E0.23847
G1 X-35.891 Y-94.556 E0.60355
G1 X-42.348 Y-91.849 E0.60355
G1 X-43.447 Y-91.324 E0.10503
G1 X91.255 Y43.379 E16.42257
G1 X89.513 Y46.996 E0.34616
G1 X86.048 Y53.079 E0.60355
G1 X84.564 Y55.414 E0.23848
G1 X82.445 Y58.507 E0.32316
G1 X-58.506 Y-82.444 E17.18428
G1 X-60.338 Y-81.179 E0.19198
G1 X-61.416 Y-80.367 E0.11636
G1 X-65.780 Y-76.837 E0.48381
G1 X-68.906 Y-74.049 E0.36114
G1 X-70.905 Y-72.137 E0.23847
G1 X-71.505 Y-71.505 E0.07511
G1 X71.474 Y71.474 E17.43168
G1 X68.321 Y74.531 E0.37860
G1 X65.176 Y77.298 E0.36115
G1 X63.037 Y79.053 E0.23847
G1 X58.490 Y82.429 E0.48821
G1 X-82.475 Y-58.537 E17.18610
G1 X-84.233 Y-56.008 E0.26552
G1 X-87.211 Y-51.251 E0.48380
G1 X-87.887 Y-50.083 E0.11637
G1 X-91.156 Y-43.854 E0.60643
G1 X-91.341 Y-43.464 E0.03721
G1 X43.406 Y91.283 E16.42798
G1 X40.338 Y92.722 E0.29216
G1 X39.097 Y93.252 E0.11637
G1 X32.519 Y95.747 E0.60643
G1 X31.239 Y96.173 E0.11637
G1 X25.924 Y97.739 E0.47767
G1 X-97.733 Y-25.918 E15.07592
G1 X-98.220 Y-24.201 E0.15383
G1 X-99.660 Y-17.350 E0.60356
G1 X-100.097 Y-14.619 E0.23848
G1 X-100.617 Y-10.462 E0.36114
G1 X-101.012 Y-5.259 E0.44982
G1 X5.236 Y100.989 E12.95350
G1 X2.420 Y101.099 E0.24298
G1 X-1.770 Y101.113 E0.36116
G1 X-7.376 Y100.862 E0.48380
G1 X-8.722 Y100.755 E0.11636
G1 X-15.705 Y99.907 E0.60643
G1 X-17.037 Y99.688 E0.11637
G1 X-20.742 Y98.950 E0.32572
G1 X-99.439 Y20.253 E9.59448
G10 ; retract
G1 Z1.000 F4800.000
; PURGING FINISHED
G1 X101.712 Y3.513
G11 ; unretract
G1 F3000
G1 X101.590 Y7.041 E0.30437
G1 X101.359 Y9.827 E0.24098
G1 X100.865 Y14.018 E0.36378
G1 X99.934 Y19.584 E0.48655
G1 X99.660 Y20.932 E0.11857
G1 X97.969 Y27.794 E0.60930
G1 X97.585 Y29.115 E0.11857
G1 X95.822 Y34.477 E0.48655
G1 X94.312 Y38.417 E0.36377
G1 X93.222 Y40.991 E0.24098
G1 X90.166 Y47.339 E0.60737
G1 X86.678 Y53.460 E0.60737
G1 X85.179 Y55.820 E0.24099
G1 X82.794 Y59.300 E0.36376
G1 X79.382 Y63.797 E0.48655
G1 X78.514 Y64.863 E0.11857
G1 X73.827 Y70.153 E0.60929
G1 X72.873 Y71.144 E0.11857
G1 X68.821 Y75.073 E0.48656
G1 X65.653 Y77.860 E0.36378
G1 X63.491 Y79.633 E0.24098
G1 X57.835 Y83.833 E0.60737
G1 X51.902 Y87.632 E0.60737
G1 X49.478 Y89.024 E0.24099
G1 X45.748 Y90.998 E0.36377
G1 X40.638 Y93.394 E0.48655
G1 X39.373 Y93.935 E0.11857
G1 X32.765 Y96.441 E0.60930
G1 X31.460 Y96.875 E0.11857
G1 X26.046 Y98.470 E0.48655
G1 X21.946 Y99.466 E0.36378
G1 X19.208 Y100.032 E0.24098
G1 X12.248 Y101.122 E0.60738
G1 X5.228 Y101.729 E0.60737
G1 X2.435 Y101.835 E0.24098
G1 X-1.785 Y101.849 E0.36379
G1 X-7.423 Y101.597 E0.48655
G1 X-8.794 Y101.488 E0.11856
G1 X-15.810 Y100.635 E0.60931
G1 X-17.167 Y100.413 E0.11856
G1 X-22.702 Y99.310 E0.48655
G1 X-26.796 Y98.286 E0.36378
G1 X-29.483 Y97.514 E0.24098
G1 X-36.152 Y95.245 E0.60737
G1 X-42.650 Y92.521 E0.60737
G1 X-45.172 Y91.316 E0.24098
G1 X-48.916 Y89.368 E0.36377
G1 X-53.790 Y86.524 E0.48656
G1 X-54.954 Y85.790 E0.11857
G1 X-60.770 Y81.775 E0.60929
G1 X-61.869 Y80.948 E0.11856
G1 X-66.257 Y77.398 E0.48656
G1 X-69.406 Y74.589 E0.36377
G1 X-71.426 Y72.658 E0.24098
G1 X-76.277 Y67.549 E0.60737
G1 X-80.765 Y62.117 E0.60737
G1 X-82.439 Y59.878 E0.24098
G1 X-84.848 Y56.414 E0.36378
G1 X-87.842 Y51.630 E0.48655
G1 X-88.531 Y50.440 E0.11857
G1 X-91.816 Y44.181 E0.60930
G1 X-92.404 Y42.938 E0.11856
G1 X-94.640 Y37.756 E0.48655
G1 X-96.123 Y33.806 E0.36377
G1 X-97.014 Y31.156 E0.24099
G1 X-98.935 Y24.378 E0.60737
G1 X-100.384 Y17.483 E0.60737
G1 X-100.826 Y14.723 E0.24098
G1 X-101.349 Y10.536 E0.36377
G1 X-101.778 Y4.908 E0.48654
G1 X-101.834 Y3.534 E0.11856
G1 X-101.834 Y-3.534 E0.60933
G1 X-101.778 Y-4.908 E0.11856
G1 X-101.349 Y-10.536 E0.48654
G1 X-100.826 Y-14.723 E0.36377
G1 X-100.384 Y-17.483 E0.24098
G1 X-98.935 Y-24.378 E0.60737
G1 X-97.014 Y-31.156 E0.60736
G1 X-96.123 Y-33.806 E0.24099
G1 X-94.640 Y-37.756 E0.36377
G1 X-92.404 Y-42.938 E0.48655
G1 X-91.816 Y-44.181 E0.11857
G1 X-88.531 Y-50.440 E0.60930
G1 X-87.842 Y-51.630 E0.11857
G1 X-84.848 Y-56.414 E0.48655
G1 X-82.439 Y-59.878 E0.36378
G1 X-80.765 Y-62.117 E0.24098
G1 X-76.277 Y-67.549 E0.60737
G1 X-71.426 Y-72.658 E0.60737
G1 X-69.406 Y-74.589 E0.24098
G1 X-66.257 Y-77.398 E0.36377
G1 X-61.869 Y-80.948 E0.48656
G1 X-60.770 Y-81.775 E0.11856
G1 X-54.954 Y-85.790 E0.60929
G1 X-53.790 Y-86.524 E0.11857
G1 X-48.916 Y-89.368 E0.48656
G1 X-45.172 Y-91.316 E0.36377
G1 X-42.650 Y-92.521 E0.24098
G1 X-36.152 Y-95.245 E0.60737
G1 X-29.483 Y-97.514 E0.60737
G1 X-26.796 Y-98.286 E0.24098
G1 X-22.702 Y-99.310 E0.36378
G1 X-17.167 Y-100.413 E0.48655
G1 X-15.810 Y-100.635 E0.11856
G1 X-9.649 Y-101.384 E0.53503
G1 X-8.794 Y-101.488 E0.07427
G1 X-7.423 Y-101.597 E0.11856
G1 X-1.785 Y-101.849 E0.48655
G1 X2.435 Y-101.835 E0.36378
G1 X5.228 Y-101.729 E0.24098
G1 X12.248 Y-101.122 E0.60737
G1 X19.208 Y-100.032 E0.60738
G1 X21.946 Y-99.466 E0.24098
G1 X26.046 Y-98.470 E0.36378
G1 X31.460 Y-96.875 E0.48655
G1 X32.765 Y-96.441 E0.11857
G1 X39.373 Y-93.935 E0.60930
G1 X40.638 Y-93.394 E0.11857
G1 X45.748 Y-90.998 E0.48655
G1 X49.478 Y-89.024 E0.36377
G1 X51.902 Y-87.632 E0.24099
G1 X57.835 Y-83.833 E0.60737
G1 X63.491 Y-79.633 E0.60737
G1 X65.653 Y-77.860 E0.24098
G1 X68.821 Y-75.073 E0.36378
G1 X72.873 Y-71.144 E0.48655
G1 X73.827 Y-70.153 E0.11857
G1 X78.514 Y-64.863 E0.60930
G1 X79.382 Y-63.797 E0.11857
G1 X82.794 Y-59.300 E0.48655
G1 X85.179 Y-55.820 E0.36377
G1 X86.678 Y-53.460 E0.24099
G1 X90.166 Y-47.339 E0.60737
G1 X93.222 Y-40.991 E0.60737
G1 X94.312 Y-38.417 E0.24098
G1 X95.822 Y-34.477 E0.36377
G1 X97.585 Y-29.115 E0.48655
G1 X97.969 Y-27.794 E0.11857
G1 X99.660 Y-20.932 E0.60930
G1 X99.934 Y-19.584 E0.11857
G1 X100.865 Y-14.018 E0.48655
G1 X101.359 Y-9.827 E0.36378
G1 X101.590 Y-7.041 E0.24098
G1 X101.833 Y-0.000 E0.60737
G1 X101.716 Y3.393 E0.29266
G1 X102.558 Y3.542 F4800.000
G1 F2250
G1 X102.435 Y7.091 E0.30613
G1 X102.201 Y9.912 E0.24401
G1 X101.703 Y14.137 E0.36680
G1 X100.766 Y19.738 E0.48957
G1 X100.486 Y21.118 E0.12134
G1 X98.786 Y28.014 E0.61232
G1 X98.393 Y29.365 E0.12134
G1 X96.620 Y34.760 E0.48957
G1 X95.097 Y38.733 E0.36679
G1 X93.994 Y41.340 E0.24401
G1 X90.915 Y47.732 E0.61165
G1 X87.403 Y53.897 E0.61165
G1 X85.885 Y56.286 E0.24401
G1 X83.480 Y59.796 E0.36679
G1 X80.048 Y64.320 E0.48958
G1 X79.159 Y65.411 E0.12134
G1 X74.449 Y70.728 E0.61232
G1 X73.473 Y71.742 E0.12134
G1 X69.395 Y75.695 E0.48958
G1 X66.201 Y78.505 E0.36680
G1 X64.012 Y80.300 E0.24401
G1 X58.316 Y84.530 E0.61165
G1 X52.341 Y88.356 E0.61165
G1 X49.887 Y89.766 E0.24401
G1 X46.126 Y91.756 E0.36680
G1 X40.984 Y94.167 E0.48957
G1 X39.690 Y94.720 E0.12134
G1 X33.049 Y97.239 E0.61232
G1 X31.713 Y97.683 E0.12134
G1 X26.266 Y99.288 E0.48957
G1 X22.131 Y100.292 E0.36680
G1 X19.359 Y100.865 E0.24400
G1 X12.350 Y101.962 E0.61166
G1 X5.281 Y102.574 E0.61165
G1 X2.453 Y102.681 E0.24400
G1 X-1.802 Y102.696 E0.36680
G1 X-7.475 Y102.442 E0.48957
G1 X-8.878 Y102.330 E0.12133
G1 X-15.929 Y101.473 E0.61233
G1 X-17.318 Y101.246 E0.12133
G1 X-22.888 Y100.136 E0.48957
G1 X-27.015 Y99.103 E0.36680
G1 X-29.736 Y98.322 E0.24400
G1 X-36.453 Y96.037 E0.61165
G1 X-42.996 Y93.293 E0.61166
G1 X-45.550 Y92.074 E0.24401
G1 X-49.324 Y90.110 E0.36680
G1 X-54.230 Y87.248 E0.48958
G1 X-55.420 Y86.497 E0.12134
G1 X-61.265 Y82.462 E0.61232
G1 X-62.390 Y81.615 E0.12134
G1 X-66.805 Y78.044 E0.48958
G1 X-69.980 Y75.211 E0.36680
G1 X-72.026 Y73.255 E0.24400
G1 X-76.911 Y68.110 E0.61165
G1 X-81.430 Y62.640 E0.61166
G1 X-83.125 Y60.374 E0.24401
G1 X-85.554 Y56.880 E0.36680
G1 X-88.567 Y52.067 E0.48957
G1 X-89.272 Y50.848 E0.12134
G1 X-92.573 Y44.559 E0.61232
G1 X-93.175 Y43.287 E0.12134
G1 X-95.425 Y38.073 E0.48958
G1 X-96.920 Y34.089 E0.36679
G1 X-97.823 Y31.407 E0.24401
G1 X-99.757 Y24.580 E0.61165
G1 X-101.217 Y17.637 E0.61166
G1 X-101.664 Y14.842 E0.24401
G1 X-102.192 Y10.620 E0.36679
G1 X-102.623 Y4.958 E0.48957
G1 X-102.680 Y3.551 E0.12133
G1 X-102.680 Y-3.551 E0.61233
G1 X-102.623 Y-4.958 E0.12133
G1 X-102.192 Y-10.620 E0.48957
G1 X-101.664 Y-14.842 E0.36679
G1 X-101.217 Y-17.637 E0.24401
G1 X-99.757 Y-24.580 E0.61166
G1 X-97.823 Y-31.407 E0.61165
G1 X-96.920 Y-34.089 E0.24401
G1 X-95.425 Y-38.073 E0.36679
G1 X-93.175 Y-43.287 E0.48958
G1 X-92.573 Y-44.559 E0.12134
G1 X-89.272 Y-50.848 E0.61232
G1 X-88.567 Y-52.067 E0.12134
G1 X-85.554 Y-56.880 E0.48957
G1 X-83.125 Y-60.374 E0.36680
G1 X-81.430 Y-62.640 E0.24401
G1 X-76.911 Y-68.110 E0.61165
G1 X-72.026 Y-73.255 E0.61165
G1 X-69.980 Y-75.211 E0.24400
G1 X-66.805 Y-78.044 E0.36680
G1 X-62.390 Y-81.615 E0.48958
G1 X-61.265 Y-82.462 E0.12133
G1 X-55.420 Y-86.497 E0.61232
G1 X-54.230 Y-87.248 E0.12134
G1 X-49.324 Y-90.110 E0.48958
G1 X-45.550 Y-92.074 E0.36680
G1 X-42.996 Y-93.293 E0.24400
G1 X-36.453 Y-96.037 E0.61166
G1 X-29.736 Y-98.322 E0.61165
G1 X-27.015 Y-99.103 E0.24400
G1 X-22.888 Y-100.136 E0.36680
G1 X-17.318 Y-101.246 E0.48957
G1 X-15.929 Y-101.474 E0.12133
G1 X-9.751 Y-102.224 E0.53655
G1 X-8.878 Y-102.330 E0.07578
G1 X-7.475 Y-102.442 E0.12133
G1 X-1.802 Y-102.696 E0.48957
G1 X2.453 Y-102.681 E0.36680
G1 X5.281 Y-102.574 E0.24400
G1 X12.350 Y-101.962 E0.61165
G1 X19.359 Y-100.865 E0.61166
G1 X22.131 Y-100.292 E0.24400
G1 X26.266 Y-99.288 E0.36680
G1 X31.713 Y-97.683 E0.48957
G1 X33.049 Y-97.239 E0.12134
G1 X39.690 Y-94.720 E0.61232
G1 X40.984 Y-94.167 E0.12134
G1 X46.126 Y-91.756 E0.48957
G1 X49.887 Y-89.766 E0.36680
G1 X52.341 Y-88.356 E0.24401
G1 X58.316 Y-84.530 E0.61165
G1 X64.012 Y-80.300 E0.61165
G1 X66.201 Y-78.505 E0.24401
G1 X69.395 Y-75.694 E0.36680
G1 X73.473 Y-71.742 E0.48957
G1 X74.449 Y-70.728 E0.12134
G1 X79.159 Y-65.411 E0.61232
G1 X80.048 Y-64.320 E0.12134
G1 X83.480 Y-59.796 E0.48958
G1 X85.885 Y-56.286 E0.36679
G1 X87.403 Y-53.897 E0.24401
G1 X90.915 Y-47.732 E0.61165
G1 X93.994 Y-41.340 E0.61165
G1 X95.097 Y-38.733 E0.24401
G1 X96.620 Y-34.760 E0.36680
G1 X98.393 Y-29.365 E0.48957
G1 X98.786 Y-28.014 E0.12134
G1 X100.486 Y-21.118 E0.61232
G1 X100.766 Y-19.738 E0.12134
G1 X101.703 Y-14.137 E0.48957
G1 X102.201 Y-9.912 E0.36680
G1 X102.435 Y-7.091 E0.24401
G1 X102.680 Y-0.000 E0.61165
G1 X102.562 Y3.422 E0.29518
G1 X101.858 Y3.929 F4800.000
G10 ; retract
G1 X92.207 Y42.527
G11 ; unretract
G1 F2700
G1 X42.475 Y92.258 E5.35429
G10 ; retract
G1 X40.489 Y93.188 F4800.000
G11 ; unretract
G1 F2700
G1 X92.469 Y41.207 E5.59645
G1 X92.689 Y40.750 E0.03862
G1 X93.291 Y39.328 E0.11757
G1 X39.281 Y93.339 E5.81504
G1 X37.568 Y93.994 E0.13960
G1 X94.022 Y37.541 E6.07804
G1 X94.678 Y35.827 E0.13972
G1 X35.865 Y94.640 E6.33208
G1 X34.163 Y95.286 E0.13864
G1 X95.322 Y34.127 E6.58465
G1 X95.839 Y32.552 E0.12619
G1 X32.467 Y95.924 E6.82289
G1 X30.905 Y96.429 E0.12498
G1 X96.357 Y30.978 E7.04680
G1 X96.874 Y29.403 E0.12619
G1 X29.407 Y96.871 E7.26386
G1 X27.908 Y97.312 E0.11893
G1 X97.333 Y27.888 E7.47454
G1 X97.693 Y26.471 E0.11132
G1 X26.410 Y97.754 E7.67466
G1 X25.894 Y97.905 E0.04091
G1 X24.979 Y98.128 E0.07175
G1 X98.039 Y25.068 E7.86598
G1 X98.384 Y23.665 E0.10999
G1 X23.583 Y98.467 E8.05350
G1 X22.187 Y98.806 E0.10937
G1 X98.730 Y22.262 E8.24103
G1 X99.076 Y20.860 E0.10999
G1 X20.838 Y99.098 E8.42350
G1 X19.505 Y99.373 E0.10356
G1 X99.348 Y19.530 E8.59622
G1 X99.563 Y18.259 E0.09817
G1 X18.228 Y99.593 E8.75681
G1 X16.975 Y99.789 E0.09658
G1 X99.775 Y16.990 E8.91460
G1 X99.987 Y15.720 E0.09797
G1 X15.722 Y99.986 E9.07239
G1 X14.469 Y100.182 E0.09658
G1 X100.199 Y14.451 E9.23017
G1 X100.286 Y13.935 E0.03983
G1 X100.370 Y13.224 E0.05452
G1 X13.215 Y100.378 E9.38343
G1 X11.978 Y100.558 E0.09515
G1 X100.511 Y12.026 E9.53180
G1 X100.652 Y10.827 E0.09186
G1 X10.821 Y100.658 E9.67160
G1 X9.664 Y100.758 E0.08842
G1 X100.788 Y9.634 E9.81083
G1 X100.884 Y8.482 E0.08806
G1 X8.507 Y100.859 E9.94572
G1 X7.350 Y100.959 E0.08842
G1 X100.980 Y7.329 E10.08061
G1 X101.034 Y6.218 E0.08468
G1 X6.193 Y101.059 E10.21100
G1 X5.043 Y101.151 E0.08777
G1 X101.071 Y5.123 E10.33880
G1 X101.109 Y4.028 E0.08340
G1 X3.945 Y101.193 E10.46116
G1 X2.846 Y101.234 E0.08370
G1 X101.147 Y2.934 E10.58351
G1 X101.185 Y1.839 E0.08340
G1 X1.771 Y101.253 E10.70334
G1 X0.710 Y101.256 E0.08074
G1 X101.223 Y0.744 E10.82160
G1 X101.248 Y-0.000 E0.05668
G1 X101.237 Y-0.327 E0.02493
G1 X-0.350 Y101.260 E10.93733
G1 X-1.411 Y101.263 E0.08074
G1 X101.202 Y-1.349 E11.04772
G1 X101.166 Y-2.371 E0.07783
G1 X-2.439 Y101.235 E11.15464
G1 X-3.451 Y101.189 E0.07710
G1 X101.131 Y-3.392 E11.25977
G1 X101.096 Y-4.414 E0.07783
G1 X-4.462 Y101.144 E11.36489
G1 X-5.474 Y101.099 E0.07710
G1 X101.061 Y-5.436 E11.47002
G1 X101.025 Y-6.458 E0.07783
G1 X-6.486 Y101.053 E11.57514
G1 X-7.494 Y101.005 E0.07684
G1 X100.969 Y-7.458 E11.67760
G1 X100.888 Y-8.434 E0.07456
G1 X-8.473 Y100.927 E11.77429
G1 X-9.425 Y100.822 E0.07294
G1 X100.807 Y-9.410 E11.86810
G1 X100.707 Y-10.367 E0.07323
G1 X-10.368 Y100.707 E11.95877
G1 X-11.310 Y100.593 E0.07228
G1 X100.595 Y-11.312 E12.04824
G1 X100.484 Y-12.258 E0.07248
G1 X-12.253 Y100.478 E12.13771
G1 X-13.195 Y100.364 E0.07228
G1 X100.372 Y-13.203 E12.22718
G1 X100.251 Y-14.140 E0.07188
G1 X-14.138 Y100.250 E12.31568
G1 X-15.080 Y100.135 E0.07228
G1 X100.100 Y-15.045 E12.40085
G1 X99.949 Y-15.951 E0.06990
G1 X-16.012 Y100.010 E12.48486
G1 X-16.920 Y99.861 E0.07007
G1 X99.797 Y-16.856 E12.56635
G1 X99.646 Y-17.762 E0.06990
G1 X-17.806 Y99.690 E12.64538
G1 X-18.687 Y99.514 E0.06841
G1 X99.494 Y-18.668 E12.72396
G1 X99.340 Y-19.570 E0.06972
G1 X-19.569 Y99.338 E12.80224
G1 X-20.450 Y99.163 E0.06841
G1 X99.162 Y-20.449 E12.87792
G1 X98.965 Y-21.309 E0.06719
G1 X-21.331 Y98.987 E12.95164
G1 X-22.212 Y98.811 E0.06841
G1 X98.756 Y-22.157 E13.02402
G1 X98.547 Y-23.005 E0.06649
G1 X-23.073 Y98.614 E13.09413
G1 X-23.918 Y98.403 E0.06635
G1 X98.338 Y-23.853 E13.16266
G1 X98.129 Y-24.701 E0.06649
G1 X-24.764 Y98.191 E13.23118
G1 X-25.609 Y97.980 E0.06635
G1 X97.920 Y-25.549 E13.29971
G1 X97.711 Y-26.397 E0.06649
G1 X-26.455 Y97.768 E13.36824
G1 X-27.281 Y97.538 E0.06533
G1 X97.502 Y-27.245 E13.43474
G1 X97.277 Y-28.078 E0.06564
G1 X-28.102 Y97.302 E13.49898
G1 X-28.924 Y97.066 E0.06504
G1 X97.039 Y-28.896 E13.56174
G1 X96.779 Y-29.693 E0.06381
G1 X-29.728 Y96.813 E13.62028
G1 X-30.516 Y96.545 E0.06342
G1 X96.518 Y-30.489 E13.67703
G1 X96.256 Y-31.284 E0.06375
G1 X-31.305 Y96.277 E13.73379
G1 X-32.093 Y96.008 E0.06342
G1 X95.995 Y-32.080 E13.79054
G1 X95.733 Y-32.875 E0.06375
G1 X-32.882 Y95.740 E13.84729
G1 X-33.671 Y95.472 E0.06342
G1 X95.472 Y-33.671 E13.90405
G1 X95.203 Y-34.459 E0.06340
G1 X-34.459 Y95.203 E13.96002
G1 X-35.248 Y94.935 E0.06342
G1 X94.910 Y-35.223 E14.01340
G1 X94.617 Y-35.987 E0.06230
G1 X-36.032 Y94.661 E14.06623
G1 X-36.776 Y94.349 E0.06148
G1 X94.324 Y-36.751 E14.11488
G1 X94.031 Y-37.516 E0.06230
G1 X-37.521 Y94.037 E14.16354
G1 X-38.266 Y93.725 E0.06148
G1 X93.736 Y-38.277 E14.21194
G1 X93.422 Y-39.020 E0.06139
G1 X-39.011 Y93.412 E14.25828
G1 X-39.755 Y93.100 E0.06148
G1 X93.107 Y-39.763 E14.30461
G1 X92.793 Y-40.505 E0.06139
G1 X-40.500 Y92.788 E14.35095
G1 X-41.245 Y92.476 E0.06148
G1 X92.459 Y-41.228 E14.39518
G1 X92.116 Y-41.942 E0.06028
G1 X-41.990 Y92.163 E14.43837
G1 X-42.722 Y91.838 E0.06097
G1 X91.772 Y-42.655 E14.48019
G1 X91.428 Y-43.369 E0.06028
G1 X-43.437 Y91.497 E14.52023
G1 X-44.153 Y91.155 E0.06036
G1 X91.085 Y-44.082 E14.56027
G1 X90.741 Y-44.795 E0.06028
G1 X-44.868 Y90.814 E14.60032
G1 X-45.564 Y90.453 E0.05970
G1 X90.398 Y-45.509 E14.63831
G1 X90.054 Y-46.222 E0.06028
G1 X-46.260 Y90.091 E14.67616
G1 X-46.955 Y89.730 E0.05966
G1 X89.711 Y-46.936 E14.71402
G1 X89.334 Y-47.616 E0.05921
G1 X-47.650 Y89.368 E14.74836
G1 X-48.345 Y89.006 E0.05966
G1 X88.951 Y-48.290 E14.78190
G1 X88.567 Y-48.963 E0.05900
G1 X-49.024 Y88.628 E14.81370
G1 X-49.692 Y88.239 E0.05884
G1 X88.183 Y-49.637 E14.84426
G1 X87.800 Y-50.310 E0.05900
G1 X-50.359 Y87.849 E14.87483
G1 X-51.027 Y87.460 E0.05884
G1 X87.416 Y-50.983 E14.90539
G1 X87.033 Y-51.657 E0.05900
G1 X-51.694 Y87.070 E14.93595
G1 X-52.362 Y86.681 E0.05884
G1 X86.649 Y-52.330 E14.96652
G1 X86.265 Y-53.003 E0.05900
G1 X-53.029 Y86.291 E14.99708
G1 X-53.691 Y85.896 E0.05867
G1 X85.861 Y-53.656 E15.02475
G1 X85.450 Y-54.302 E0.05830
G1 X-54.339 Y85.487 E15.05031
G1 X-54.974 Y85.065 E0.05806
G1 X85.039 Y-54.948 E15.07452
G1 X84.626 Y-55.592 E0.05823
G1 X-55.600 Y84.634 E15.09732
G1 X-56.225 Y84.202 E0.05785
G1 X84.196 Y-56.219 E15.11838
G1 X83.766 Y-56.846 E0.05788
G1 X-56.850 Y83.770 E15.13944
G1 X-57.476 Y83.339 E0.05785
G1 X83.336 Y-57.473 E15.16050
G1 X82.907 Y-58.101 E0.05788
G1 X-58.101 Y82.907 E15.18155
G1 X-58.727 Y82.475 E0.05785
G1 X82.477 Y-58.728 E15.20261
G1 X82.031 Y-59.339 E0.05758
G1 X-59.352 Y82.044 E15.22188
G1 X-59.977 Y81.612 E0.05785
G1 X81.575 Y-59.940 E15.24012
G1 X81.119 Y-60.541 E0.05743
G1 X-60.596 Y81.174 E15.25768
G1 X-61.199 Y80.720 E0.05746
G1 X80.663 Y-61.142 E15.27349
G1 X80.207 Y-61.743 E0.05743
G1 X-61.793 Y80.257 E15.28833
G1 X-62.377 Y79.784 E0.05722
G1 X79.751 Y-62.344 E15.30216
G1 X79.295 Y-62.945 E0.05743
G1 X-62.962 Y79.312 E15.31598
G1 X-63.546 Y78.839 E0.05722
G1 X78.835 Y-63.542 E15.32943
G1 X78.361 Y-64.125 E0.05720
G1 X-64.130 Y78.366 E15.34126
G1 X-64.715 Y77.894 E0.05722
G1 X77.878 Y-64.699 E15.35218
G1 X77.381 Y-65.259 E0.05700
G1 X-65.299 Y77.421 E15.36164
G1 X-65.883 Y76.948 E0.05721
G1 X76.885 Y-65.820 E15.37107
G1 X76.388 Y-66.380 E0.05700
G1 X-66.442 Y76.450 E15.37776
G1 X-67.001 Y75.952 E0.05699
G1 X75.892 Y-66.941 E15.38444
G1 X75.395 Y-67.501 E0.05700
G1 X-67.559 Y75.453 E15.39113
G1 X-68.118 Y74.955 E0.05699
G1 X74.899 Y-68.062 E15.39782
G1 X74.402 Y-68.622 E0.05700
G1 X-68.676 Y74.457 E15.40451
G1 X-69.228 Y73.951 E0.05695
G1 X73.906 Y-69.183 E15.41040
G1 X73.409 Y-69.743 E0.05700
G1 X-69.768 Y73.434 E15.41512
G1 X-70.308 Y72.917 E0.05691
G1 X72.891 Y-70.282 E15.41753
G1 X72.370 Y-70.818 E0.05691
G1 X-70.849 Y72.401 E15.41956
G1 X-71.371 Y71.866 E0.05690
G1 X71.833 Y-71.338 E15.41803
G1 X71.296 Y-71.858 E0.05691
G1 X-71.886 Y71.324 E15.41567
G1 X-72.401 Y70.782 E0.05692
G1 X70.760 Y-72.379 E15.41331
G1 X70.223 Y-72.899 E0.05691
G1 X-72.916 Y70.240 E15.41096
G1 X-73.431 Y69.698 E0.05692
G1 X69.686 Y-73.419 E15.40860
G1 X69.150 Y-73.939 E0.05691
G1 X-73.945 Y69.155 E15.40624
G1 X-74.460 Y68.613 E0.05692
G1 X68.613 Y-74.460 E15.40389
G1 X68.060 Y-74.963 E0.05696
G1 X-74.975 Y68.071 E15.39974
G1 X-75.490 Y67.529 E0.05692
G1 X67.497 Y-75.458 E15.39463
G1 X66.935 Y-75.953 E0.05702
G1 X-75.993 Y66.975 E15.38825
G1 X-76.471 Y66.396 E0.05716
G1 X66.373 Y-76.447 E15.37920
G1 X65.810 Y-76.942 E0.05702
G1 X-76.949 Y65.817 E15.37014
G1 X-77.427 Y65.238 E0.05716
G1 X65.247 Y-77.436 E15.36099
G1 X64.667 Y-77.912 E0.05718
G1 X-77.905 Y64.660 E15.34996
G1 X-78.384 Y64.081 E0.05716
G1 X64.086 Y-78.389 E15.33892
G1 X63.505 Y-78.865 E0.05718
G1 X-78.862 Y63.502 E15.32789
G1 X-79.340 Y62.923 E0.05716
G1 X62.915 Y-79.332 E15.31586
G1 X62.309 Y-79.783 E0.05752
G1 X-79.818 Y62.344 E15.30203
G1 X-80.296 Y61.766 E0.05716
G1 X61.702 Y-80.233 E15.28821
G1 X61.096 Y-80.683 E0.05752
G1 X-80.749 Y61.161 E15.27164
G1 X-81.201 Y60.557 E0.05749
G1 X60.489 Y-81.134 E15.25502
G1 X59.882 Y-81.584 E0.05752
G1 X-81.654 Y59.952 E15.23840
G1 X-82.100 Y59.341 E0.05758
G1 X59.276 Y-82.034 E15.22116
G1 X58.669 Y-82.485 E0.05752
G1 X-82.534 Y58.718 E15.20252
G1 X-82.967 Y58.094 E0.05781
G1 X58.063 Y-82.935 E15.18389
G1 X57.453 Y-83.383 E0.05756
G1 X-83.401 Y57.471 E15.16494
G1 X-83.834 Y56.847 E0.05781
G1 X56.809 Y-83.795 E15.14225
G1 X56.164 Y-84.208 E0.05825
G1 X-84.268 Y56.224 E15.11955
G1 X-84.680 Y55.579 E0.05825
G1 X55.520 Y-84.621 E15.09460
G1 X54.876 Y-85.033 E0.05825
G1 X-85.087 Y54.929 E15.06903
G1 X-85.494 Y54.279 E0.05839
G1 X54.231 Y-85.446 E15.04347
G1 X53.587 Y-85.859 E0.05825
G1 X-85.901 Y53.629 E15.01791
G1 X-86.308 Y52.979 E0.05839
G1 X52.943 Y-86.271 E14.99235
G1 X52.298 Y-86.684 E0.05825
G1 X-86.715 Y52.329 E14.96678
G1 X-87.122 Y51.679 E0.05839
G1 X51.654 Y-87.097 E14.94122
G1 X50.985 Y-87.485 E0.05888
G1 X-87.520 Y51.020 E14.91203
G1 X-87.907 Y50.350 E0.05889
G1 X50.314 Y-87.870 E14.88147
G1 X49.642 Y-88.256 E0.05894
G1 X-88.278 Y49.664 E14.84909
G1 X-88.642 Y48.971 E0.05960
G1 X48.964 Y-88.635 E14.81526
G1 X48.273 Y-89.001 E0.05953
G1 X-89.005 Y48.278 E14.78001
G1 X-89.369 Y47.585 E0.05960
G1 X47.582 Y-89.366 E14.74477
G1 X46.891 Y-89.732 E0.05953
G1 X-89.733 Y46.891 E14.70952
G1 X-90.097 Y46.198 E0.05960
G1 X46.199 Y-90.098 E14.67428
G1 X45.508 Y-90.464 E0.05953
G1 X-90.461 Y45.505 E14.63903
G1 X-90.825 Y44.812 E0.05960
G1 X44.789 Y-90.802 E14.60082
G1 X44.070 Y-91.140 E0.06051
G1 X-91.188 Y44.119 E14.56252
G1 X-91.535 Y43.408 E0.06018
G1 X43.350 Y-91.477 E14.52234
G1 X42.631 Y-91.814 E0.06051
G1 X-91.874 Y42.690 E14.48139
G1 X-92.193 Y41.952 E0.06122
G1 X41.911 Y-92.152 E14.43822
G1 X41.192 Y-92.489 E0.06051
G1 X-92.511 Y41.214 E14.39505
G1 X-92.830 Y40.475 E0.06122
G1 X40.472 Y-92.827 E14.35188
G1 X39.734 Y-93.145 E0.06122
G1 X-93.148 Y39.737 E14.30668
G1 X-93.467 Y38.998 E0.06122
G1 X38.987 Y-93.456 E14.26066
G1 X38.221 Y-93.747 E0.06240
G1 X-93.786 Y38.260 E14.21245
G1 X-94.104 Y37.521 E0.06125
G1 X37.455 Y-94.037 E14.16417
G1 X36.688 Y-94.328 E0.06240
G1 X-94.392 Y36.753 E14.11272
G1 X-94.681 Y35.984 E0.06250
G1 X35.922 Y-94.619 E14.06127
G1 X35.156 Y-94.909 E0.06240
G1 X-94.969 Y35.215 E14.00981
G1 X-95.257 Y34.447 E0.06250
G1 X34.389 Y-95.200 E13.95836
G1 X33.623 Y-95.490 E0.06240
G1 X-95.546 Y33.678 E13.90690
G1 X-95.814 Y32.889 E0.06343
G1 X32.857 Y-95.781 E13.85326
G1 X32.073 Y-96.055 E0.06316
G1 X-96.080 Y32.098 E13.79759
G1 X-96.346 Y31.308 E0.06353
G1 X31.280 Y-96.319 E13.74082
G1 X30.464 Y-96.559 E0.06480
G1 X-96.593 Y30.497 E13.67949
G1 X-96.826 Y29.674 E0.06517
G1 X29.647 Y-96.800 E13.61673
G1 X28.831 Y-97.040 E0.06480
G1 X-97.060 Y28.850 E13.55396
G1 X-97.293 Y28.027 E0.06517
G1 X28.014 Y-97.281 E13.49119
G1 X27.198 Y-97.521 E0.06480
G1 X-97.527 Y27.203 E13.42842
G1 X-97.760 Y26.380 E0.06517
G1 X26.381 Y-97.762 E13.36565
G1 X25.551 Y-97.989 E0.06552
G1 X-97.994 Y25.556 E13.30140
G1 X-98.227 Y24.732 E0.06517
G1 X24.701 Y-98.195 E13.23496
G1 X23.850 Y-98.402 E0.06663
G1 X-98.440 Y23.889 E13.16639
G1 X-98.624 Y23.015 E0.06795
G1 X23.000 Y-98.608 E13.09458
G1 X22.149 Y-98.815 E0.06663
G1 X-98.808 Y22.142 E13.02278
G1 X-98.991 Y21.269 E0.06795
G1 X21.283 Y-99.006 E12.94930
G1 X20.407 Y-99.187 E0.06810
G1 X-99.175 Y20.395 E12.87474
G1 X-99.358 Y19.522 E0.06795
G1 X19.531 Y-99.368 E12.80018
G1 X18.636 Y-99.529 E0.06927
G1 X-99.542 Y18.648 E12.72354
G1 X-99.725 Y17.775 E0.06795
G1 X17.722 Y-99.672 E12.64491
G1 X16.808 Y-99.816 E0.07042
G1 X-99.888 Y16.881 E12.56408
G1 X-100.034 Y15.970 E0.07024
G1 X15.894 Y-99.959 E12.48140
G1 X14.980 Y-100.102 E0.07042
G1 X-100.180 Y15.059 E12.39872
G1 X-100.311 Y14.132 E0.07123
G1 X14.067 Y-100.245 E12.31437
G1 X13.153 Y-100.388 E0.07042
G1 X-100.428 Y13.193 E12.22862
G1 X-100.545 Y12.253 E0.07209
G1 X12.239 Y-100.531 E12.14287
G1 X11.270 Y-100.619 E0.07406
G1 X-100.663 Y11.313 E12.05120
G1 X-100.776 Y10.369 E0.07240
G1 X10.297 Y-100.704 E11.95859
G1 X9.324 Y-100.788 E0.07434
G1 X-100.850 Y9.387 E11.86191
G1 X-100.925 Y8.405 E0.07500
G1 X8.352 Y-100.872 E11.76522
G1 X7.379 Y-100.956 E0.07434
G1 X-101.000 Y7.422 E11.66853
G1 X-101.075 Y6.440 E0.07500
G1 X6.406 Y-101.040 E11.57184
G1 X5.433 Y-101.125 E0.07434
G1 X-101.149 Y5.458 E11.47515
G1 X-101.211 Y4.462 E0.07594
G1 X4.426 Y-101.174 E11.37333
G1 X3.408 Y-101.213 E0.07759
G1 X-101.249 Y3.444 E11.26786
G1 X-101.249 Y2.387 E0.08047
G1 X2.388 Y-101.251 E11.15810
G1 X1.335 Y-101.254 E0.08020
G1 X-101.249 Y1.330 E11.04468
G1 X-101.249 Y0.273 E0.08047
G1 X0.281 Y-101.258 E10.93126
G1 X-0.772 Y-101.261 E0.08020
G1 X-101.249 Y-0.784 E10.81785
G1 X-101.249 Y-1.841 E0.08047
G1 X-1.828 Y-101.262 E10.70414
G1 X-2.935 Y-101.213 E0.08433
G1 X-101.249 Y-2.898 E10.58500
G1 X-101.231 Y-3.974 E0.08190
G1 X-4.041 Y-101.163 E10.46386
G1 X-5.148 Y-101.113 E0.08433
G1 X-101.178 Y-5.084 E10.33901
G1 X-101.091 Y-6.228 E0.08735
G1 X-6.254 Y-101.064 E10.21050
G1 X-7.361 Y-101.014 E0.08433
G1 X-101.004 Y-7.372 E10.08199
G1 X-100.917 Y-8.516 E0.08735
G1 X-8.508 Y-100.924 E9.94907
G1 X-9.701 Y-100.789 E0.09135
G1 X-100.830 Y-9.660 E9.81134
G1 X-100.724 Y-10.822 E0.08885
G1 X-10.904 Y-100.642 E9.67046
G1 X-12.107 Y-100.496 E0.09227
G1 X-100.573 Y-12.030 E9.52468
G1 X-100.422 Y-13.238 E0.09267
G1 X-13.310 Y-100.350 E9.37890
G1 X-14.513 Y-100.204 E0.09227
G1 X-100.272 Y-14.446 E9.23312
G1 X-100.078 Y-15.696 E0.09633
G1 X-15.717 Y-100.058 E9.08276
G1 X-16.980 Y-99.851 E0.09746
G1 X-99.877 Y-16.955 E8.92504
G1 X-99.809 Y-17.377 E0.03252
G1 X-99.622 Y-18.266 E0.06921
G1 X-18.296 Y-99.592 E8.75589
G1 X-19.617 Y-99.329 E0.10248
G1 X-99.341 Y-19.604 E8.58348
G1 X-99.060 Y-20.943 E0.10410
G1 X-20.937 Y-99.065 E8.41106
G1 X-22.257 Y-98.802 E0.10248
G1 X-98.778 Y-22.281 E8.23864
G1 X-98.497 Y-23.619 E0.10410
G1 X-23.645 Y-98.471 E8.05892
G1 X-25.055 Y-98.119 E0.11062
G1 X-98.142 Y-25.031 E7.86895
G1 X-97.724 Y-26.506 E0.11672
G1 X-26.464 Y-97.766 E7.67218
G1 X-27.938 Y-97.350 E0.11657
G1 X-97.306 Y-27.981 E7.46853
G1 X-96.888 Y-29.456 E0.11672
G1 X-29.430 Y-96.915 E7.26290
G1 X-31.032 Y-96.370 E0.12884
G1 X-96.470 Y-30.931 E7.04539
G1 X-95.938 Y-32.520 E0.12755
G1 X-32.634 Y-95.824 E6.81565
G1 X-34.236 Y-95.279 E0.12884
G1 X-95.371 Y-34.144 E6.58208
G1 X-94.736 Y-35.836 E0.13759
G1 X-35.838 Y-94.734 E6.34122
G1 X-37.644 Y-93.985 E0.14881
G1 X-94.101 Y-37.528 E6.07845
G1 X-93.300 Y-39.387 E0.15407
G1 X-39.464 Y-93.222 E5.79621
G1 X-41.284 Y-92.459 E0.15025
G1 X-92.497 Y-41.246 E5.51387
G1 X-91.871 Y-42.697 E0.12035
G1 X-91.663 Y-43.137 E0.03706
G1 X-42.477 Y-92.323 E5.29558
G10 ; retract
G1 X-44.491 Y-91.366 F4800.000
G11 ; unretract
G1 F2700
G1 X-91.379 Y-44.478 E5.04812
G10 ; retract
G1 X-90.211 Y-46.703 F4800.000
G11 ; unretract
G1 F2700
G1 X-46.644 Y-90.270 E4.69063
G10 ; retract
G1 X-48.856 Y-89.115 F4800.000
G11 ; unretract
G1 F2700
G1 X-89.044 Y-48.927 E4.32675
G10 ; retract
G1 X-87.770 Y-51.259 F4800.000
G11 ; unretract
G1 F2700
G1 X-51.394 Y-87.634 E3.91633
G10 ; retract
G1 X-53.967 Y-86.118 F4800.000
G11 ; unretract
G1 F2700
G1 X-86.031 Y-54.054 E3.45223
G10 ; retract
G1 X-84.125 Y-57.017 F4800.000
G11 ; unretract
G1 F2700
G1 X-57.216 Y-83.926 E2.89721
G10 ; retract
G1 X-60.629 Y-81.570 F4800.000
G11 ; unretract
G1 F2700
G1 X-81.556 Y-60.643 E2.25308
G10 ; retract
G1 X-77.128 Y-66.128 F4800.000
G11 ; unretract
G1 F2700
G1 X-65.843 Y-77.413 E1.21503
G10 ; retract
G1 X91.225 Y44.566 F4800.000
G11 ; unretract
G1 F2700
G1 X44.465 Y91.325 E5.03432
G10 ; retract
G1 X46.560 Y90.287 F4800.000
G11 ; unretract
G1 F2700
G1 X90.243 Y46.605 E4.70304
G10 ; retract
G1 X88.970 Y48.934 F4800.000
G11 ; unretract
G1 F2700
G1 X48.806 Y89.098 E4.32425
G10 ; retract
G1 X51.231 Y87.731 F4800.000
G11 ; unretract
G1 F2700
G1 X87.571 Y51.391 E3.91254
G10 ; retract
G1 X86.078 Y53.940 F4800.000
G11 ; unretract
G1 F2700
G1 X54.070 Y85.948 E3.44608
G10 ; retract
G1 X57.010 Y84.065 F4800.000
G11 ; unretract
G1 F2700
G1 X84.052 Y57.023 E2.91146
G10 ; retract
G1 X81.378 Y60.754 F4800.000
G11 ; unretract
G1 F2700
G1 X60.844 Y81.288 E2.21082
G10 ; retract
G1 X65.723 Y77.466 F4800.000
G11 ; unretract
G1 F2700
G1 X77.055 Y66.135 E1.22002
G10 ; retract
M107
; Filament-specific end gcode 
; Begin of 'End G-code'
M98 Pend.g
; filament used = 7371.6mm (17.7cm3)
; filament used = 23.1
; filament cost = 0.6
; total filament cost = 0.6
; estimated printing time (normal mode) = 41m 16s

; avoid_crossing_perimeters = 0
; bed_shape = -160x-160,160x-160,160x160,-160x160
; bed_temperature = 0
; before_layer_gcode = 
; between_objects_gcode = 
; bridge_acceleration = 0
; bridge_fan_speed = 50
; brim_width = 0
; complete_objects = 0
; cooling = 1
; cooling_tube_length = 5
; cooling_tube_retraction = 91.5
; default_acceleration = 0
; deretract_speed = 0
; disable_fan_first_layers = 1
; duplicate_distance = 6
; end_filament_gcode = "; Filament-specific end gcode \n"
; end_gcode = ; Begin of 'End G-code'\nM98 Pend.g\n
; extra_loading_move = -2
; extruder_clearance_height = 20
; extruder_clearance_radius = 20
; extruder_colour = ""
; extruder_offset = 0x0
; extrusion_axis = E
; extrusion_multiplier = 0.98
; fan_always_on = 1
; fan_below_layer_time = 15
; filament_colour = #8080FF
; filament_cooling_final_speed = 3.4
; filament_cooling_initial_speed = 2.2
; filament_cooling_moves = 4
; filament_cost = 25
; filament_density = 1.3
; filament_diameter = 1.75
; filament_load_time = 0
; filament_loading_speed = 28
; filament_loading_speed_start = 3
; filament_max_volumetric_speed = 0
; filament_minimal_purge_on_wipe_tower = 15
; filament_notes = ""
; filament_ramming_parameters = "120 100 6.6 6.8 7.2 7.6 7.9 8.2 8.7 9.4 9.9 10.0| 0.05 6.6 0.45 6.8 0.95 7.8 1.45 8.3 1.95 9.7 2.45 10 2.95 7.6 3.45 7.6 3.95 7.6 4.45 7.6 4.95 7.6"
; filament_soluble = 0
; filament_toolchange_delay = 0
; filament_type = PLA
; filament_unload_time = 0
; filament_unloading_speed = 90
; filament_unloading_speed_start = 100
; first_layer_acceleration = 0
; first_layer_bed_temperature = 0
; first_layer_extrusion_width = 0
; first_layer_speed = 50%
; first_layer_temperature = 190
; gcode_comments = 0
; gcode_flavor = reprap
; infill_acceleration = 0
; infill_first = 0
; layer_gcode = 
; machine_max_acceleration_e = 3000,3000
; machine_max_acceleration_extruding = 3000,3000
; machine_max_acceleration_retracting = 3000,3000
; machine_max_acceleration_x = 1000,1000
; machine_max_acceleration_y = 1000,1000
; machine_max_acceleration_z = 100,100
; machine_max_feedrate_e = 3600,3600
; machine_max_feedrate_x = 30000,30000
; machine_max_feedrate_y = 30000,30000
; machine_max_feedrate_z = 1200,1200
; machine_max_jerk_e = 600,600
; machine_max_jerk_x = 900,900
; machine_max_jerk_y = 900,900
; machine_max_jerk_z = 60,60
; machine_min_extruding_rate = 0,0
; machine_min_travel_rate = 0,0
; max_fan_speed = 50
; max_layer_height = 0.25
; max_print_height = 300
; max_print_speed = 80
; max_volumetric_extrusion_rate_slope_negative = 0
; max_volumetric_extrusion_rate_slope_positive = 0
; max_volumetric_speed = 0
; min_fan_speed = 30
; min_layer_height = 0.1
; min_print_speed = 15
; min_skirt_length = 3
; notes = 
; nozzle_diameter = 0.8
; only_retract_when_crossing_perimeters = 0
; ooze_prevention = 0
; output_filename_format = [input_filename_base].gcode
; parking_pos_retraction = 92
; perimeter_acceleration = 0
; post_process = 
; printer_model = 
; printer_notes = 
; remaining_times = 0
; resolution = 0
; retract_before_travel = 2
; retract_before_wipe = 0%
; retract_layer_change = 1
; retract_length = 6
; retract_length_toolchange = 10
; retract_lift = 0
; retract_lift_above = 0
; retract_lift_below = 0
; retract_restart_extra = 0
; retract_restart_extra_toolchange = 0
; retract_speed = 30
; silent_mode = 1
; single_extruder_multi_material = 0
; single_extruder_multi_material_priming = 1
; skirt_distance = 5
; skirt_height = 1
; skirts = 0
; slowdown_below_layer_time = 5
; spiral_vase = 0
; standby_temperature_delta = -5
; start_filament_gcode = "; Filament-specific start gcode"
; start_gcode = ; Begin of 'Start G-code'\n
; temperature = 190
; threads = 4
; toolchange_gcode = 
; travel_speed = 80
; use_firmware_retraction = 1
; use_relative_e_distances = 1
; use_volumetric_e = 0
; variable_layer_height = 1
; wipe = 0
; wipe_tower = 0
; wipe_tower_bridging = 10
; wipe_tower_rotation_angle = 0
; wipe_tower_width = 60
; wipe_tower_x = 180
; wipe_tower_y = 140
; wiping_volumes_extruders = 70,70
; wiping_volumes_matrix = 0
; z_offset = 0
; clip_multipart_objects = 0
; dont_support_bridges = 0
; elefant_foot_compensation = 0.2
; extrusion_width = 0
; first_layer_height = 0.25
; infill_only_where_needed = 0
; interface_shells = 0
; layer_height = 0.25
; raft_layers = 0
; seam_position = aligned
; support_material = 0
; support_material_angle = 45
; support_material_buildplate_only = 0
; support_material_contact_distance = 0.2
; support_material_enforce_layers = 0
; support_material_extruder = 1
; support_material_extrusion_width = 0
; support_material_interface_contact_loops = 0
; support_material_interface_extruder = 1
; support_material_interface_layers = 0
; support_material_interface_spacing = 0
; support_material_interface_speed = 100%
; support_material_pattern = rectilinear-grid
; support_material_spacing = 3
; support_material_speed = 40
; support_material_synchronize_layers = 0
; support_material_threshold = 15
; support_material_with_sheath = 1
; support_material_xy_spacing = 0.4
; wipe_into_objects = 0
; xy_size_compensation = 0
; bottom_solid_layers = 1
; bridge_angle = 0
; bridge_flow_ratio = 1
; bridge_speed = 30
; ensure_vertical_shell_thickness = 1
; external_fill_pattern = rectilinear
; external_perimeter_extrusion_width = 0
; external_perimeter_speed = 75%
; external_perimeters_first = 0
; extra_perimeters = 1
; fill_angle = 45
; fill_density = 5%
; fill_pattern = rectilinear
; gap_fill_speed = 20
; infill_every_layers = 1
; infill_extruder = 1
; infill_extrusion_width = 0
; infill_overlap = 25%
; infill_speed = 60
; overhangs = 1
; perimeter_extruder = 1
; perimeter_extrusion_width = 0
; perimeter_speed = 50
; perimeters = 2
; small_perimeter_speed = 50%
; solid_infill_below_area = 50
; solid_infill_every_layers = 0
; solid_infill_extruder = 1
; solid_infill_extrusion_width = 0
; solid_infill_speed = 100%
; thin_walls = 1
; top_infill_extrusion_width = 0
; top_solid_infill_speed = 75%
; top_solid_layers = 1
; wipe_into_infill = 0
; print_settings_id = Fast - 5 axis
; filament_settings_id = "PLA Daylifil gris clair"
; printer_settings_id = Nozzle 0.4 - 5 axis
; printer_model = 
; printer_variant = 
; default_print_profile = 
; default_filament_profile = 
